<?xml version="1.0" encoding="utf-8"?>
<!-- Generator: Adobe Illustrator 23.1.0, SVG Export Plug-In . SVG Version: 6.00 Build 0)  -->
<svg version="1.1" id="Layer_1" xmlns="http://www.w3.org/2000/svg" xmlns:xlink="http://www.w3.org/1999/xlink" x="0px" y="0px"
	 viewBox="0 0 424.5 112.1" style="enable-background:new 0 0 424.5 112.1;" xml:space="preserve">
<style type="text/css">
	.st0{enable-background:new    ;}
	.st1{fill:#FFFFFF;}
	.st2{fill:url(#SVGID_1_);}
	.st3{fill:url(#SVGID_2_);}
	.st4{fill:url(#SVGID_3_);}
	.st5{fill:url(#SVGID_4_);}
	.st6{fill:url(#SVGID_5_);}
	.st7{fill:url(#SVGID_6_);}
	.st8{fill:url(#SVGID_7_);}
	.st9{fill:url(#SVGID_8_);}
	.st10{fill:url(#SVGID_9_);}
	.st11{fill:url(#SVGID_10_);}
</style>
<title>Asset 6</title>
<g>
	<g class="st0">
		
			<image style="overflow:visible;opacity:0.5;" width="396" height="77" xlink:href="C7F580E5.png"  transform="matrix(1 0 0 1 29 40.09)">
		</image>
		<g>
			<g>
				<path class="st1" d="M53.7,102.2H48l-8.6-28.4v28.4h-5.3V52h5.7l8.6,31V52h5.3V102.2z"/>
				<path class="st1" d="M76.2,102.2h-5.6V79.6h-8.2v22.6h-5.7V52h5.7V74h8.2V52h5.6V102.2z"/>
				<path class="st1" d="M98.8,102.2h-5.7L92.4,96h-7.2l-0.8,6.2h-6L86.1,52h5.1L98.8,102.2z M88.5,49l-2.4,2h-3l3.9-4.6h2.8l4,4.6
					h-3L88.5,49z M91.6,90.7l-2.9-22l-2.9,22H91.6z M88.6,108.7c-0.7,0-1.2-0.3-1.7-0.7c-0.5-0.5-0.7-1.1-0.7-1.8
					c0-0.7,0.2-1.3,0.7-1.8c0.5-0.5,1.1-0.7,1.7-0.7c0.7,0,1.3,0.2,1.8,0.7c0.5,0.5,0.7,1.1,0.7,1.8c0,0.7-0.2,1.3-0.7,1.8
					C89.9,108.4,89.3,108.7,88.6,108.7z"/>
				<path class="st1" d="M120.5,102.2h-5.6l-8.6-28.4v28.4H101V52h5.7l8.6,31V52h5.3V102.2z"/>
				<path class="st1" d="M152.4,57.7h-5.8v44.5H141V57.7h-5.7V52h17.2V57.7z"/>
				<path class="st1" d="M173.3,102.2h-5.6V79.6h-8.2v22.6h-5.7V52h5.7V74h8.2V52h5.6V102.2z"/>
				<path class="st1" d="M195.7,93.3c0,1.3-0.3,2.6-0.8,3.8s-1.2,2.2-2.1,3.1s-1.9,1.6-3.1,2.1c-1.2,0.5-2.5,0.8-3.8,0.8
					c-1.4,0-2.6-0.3-3.8-0.8c-1.2-0.5-2.2-1.2-3.1-2.1s-1.6-1.9-2.1-3.1s-0.8-2.5-0.8-3.8V61c0-1.4,0.3-2.6,0.8-3.8
					c0.5-1.2,1.2-2.2,2.1-3.1c0.9-0.9,1.9-1.6,3.1-2.1c1.2-0.5,2.5-0.8,3.8-0.8c1.3,0,2.6,0.3,3.8,0.8c1.2,0.5,2.2,1.2,3.1,2.1
					c0.9,0.9,1.6,1.9,2.1,3.1c0.5,1.2,0.8,2.5,0.8,3.8V93.3z M185.9,48.4l-2.4,2h-3l3.9-4.6h2.8l4,4.6h-3L185.9,48.4z M190.1,93.3
					V61c0-1.2-0.4-2.2-1.2-2.9c-0.8-0.8-1.8-1.2-2.9-1.2c-1.2,0-2.1,0.4-2.9,1.2c-0.8,0.8-1.2,1.8-1.2,2.9v32.4
					c0,1.2,0.4,2.1,1.2,2.9s1.8,1.2,2.9,1.2c1.1,0,2.1-0.4,2.9-1.2S190.1,94.5,190.1,93.3z"/>
				<path class="st1" d="M218.1,102.2h-5.6l-8.6-28.4v28.4h-5.3V52h5.7l8.6,31V52h5.3V102.2z"/>
				<path class="st1" d="M240.9,102.2h-3.8l-0.6-2.1c-0.7,1-1.5,1.8-2.4,2.3c-1,0.5-2,0.8-3.2,0.8c-1.3,0-2.6-0.3-3.8-0.8
					s-2.3-1.2-3.2-2.1c-0.9-0.9-1.7-1.9-2.2-3.1s-0.8-2.5-0.8-3.8V61c0-1.4,0.3-2.6,0.8-3.8c0.5-1.2,1.2-2.2,2.1-3.1
					c0.9-0.9,1.9-1.6,3.1-2.1c1.2-0.5,2.5-0.8,3.8-0.8c1.3,0,2.6,0.3,3.8,0.8c1.2,0.5,2.2,1.2,3.1,2.1c0.9,0.9,1.6,1.9,2.1,3.1
					c0.5,1.2,0.8,2.5,0.8,3.8v1.6h-5.6V61c0-1.2-0.4-2.2-1.2-2.9c-0.8-0.8-1.8-1.2-2.9-1.2c-1.2,0-2.1,0.4-2.9,1.2
					c-0.8,0.8-1.2,1.8-1.2,2.9v32.4c0,1.2,0.4,2.1,1.3,2.9s1.9,1.2,3.1,1.2c1.1,0,2.1-0.4,3-1.2c0.9-0.8,1.3-1.8,1.3-2.9V79.7h-4.7
					v-5.2h10.3V102.2z"/>
				<path class="st1" d="M272.6,57.7h-5.8v44.5h-5.7V57.7h-5.7V52h17.2V57.7z"/>
				<path class="st1" d="M279.7,102.2h-5.7V52h5.7V102.2z"/>
				<path class="st1" d="M302.3,102.2h-5.6l-8.6-28.4v28.4h-5.3V52h5.7l8.6,31V52h5.3V102.2z"/>
				<path class="st1" d="M338,92.4c0,1.4-0.3,2.6-0.8,3.8c-0.5,1.2-1.2,2.2-2.1,3.1c-0.9,0.9-1.9,1.6-3.1,2.1s-2.5,0.8-3.8,0.8h-9.8
					V52h9.8c1.3,0,2.6,0.3,3.8,0.8c1.2,0.5,2.2,1.2,3.1,2.1c0.9,0.9,1.6,1.9,2.1,3.1c0.5,1.2,0.8,2.5,0.8,3.8V92.4z M332.4,92.4
					V61.8c0-1.2-0.4-2.1-1.2-2.9c-0.8-0.8-1.8-1.2-2.9-1.2h-4.1v38.9h4.1c1.1,0,2.1-0.4,2.9-1.2C331.9,94.5,332.4,93.6,332.4,92.4z"
					/>
				<path class="st1" d="M360.3,59.9v33.5c0,1.3-0.3,2.6-0.8,3.8s-1.2,2.2-2.1,3.1s-1.9,1.6-3.1,2.1c-1.2,0.5-2.5,0.8-3.8,0.8
					c-1.4,0-2.6-0.3-3.8-0.8s-2.2-1.2-3.1-2.1c-0.9-0.9-1.6-1.9-2.1-3.1s-0.8-2.5-0.8-3.8V52h5.7v41.3c0,1.2,0.4,2.1,1.2,2.9
					c0.8,0.8,1.8,1.2,2.9,1.2c1.1,0,2.1-0.4,2.9-1.2c0.8-0.8,1.2-1.8,1.2-2.9V52h3.2l0.1-1.5h5L360.3,59.9z M350.5,109.2
					c-0.7,0-1.2-0.3-1.7-0.7c-0.5-0.5-0.8-1.1-0.8-1.8c0-0.7,0.3-1.3,0.8-1.8c0.5-0.5,1.1-0.7,1.7-0.7c0.7,0,1.3,0.2,1.8,0.7
					c0.5,0.5,0.7,1.1,0.7,1.8c0,0.7-0.2,1.3-0.7,1.8C351.8,108.9,351.2,109.2,350.5,109.2z"/>
				<path class="st1" d="M396,102.2h-5.7l-0.8-6.2h-7.2l-0.8,6.2h-6l7.7-50.2h5.1L396,102.2z M388.9,90.7l-2.9-22l-2.9,22H388.9z
					 M386.3,50.7h-2l2.9-5.1h3.6L386.3,50.7z"/>
				<path class="st1" d="M417.7,102.2h-5.6l-8.6-28.4v28.4h-5.3V52h5.7l8.6,31V52h5.3V102.2z"/>
			</g>
		</g>
	</g>
	<g>
		<linearGradient id="SVGID_1_" gradientUnits="userSpaceOnUse" x1="3.0058" y1="40.8974" x2="52.2597" y2="40.8974">
			<stop  offset="0" style="stop-color:#B8822C"/>
			<stop  offset="0.1" style="stop-color:#FCF4A4"/>
			<stop  offset="0.31" style="stop-color:#B37D2B"/>
			<stop  offset="0.34" style="stop-color:#C08B24"/>
			<stop  offset="0.4" style="stop-color:#DCA717"/>
			<stop  offset="0.47" style="stop-color:#EFBC0D"/>
			<stop  offset="0.53" style="stop-color:#FBC807"/>
			<stop  offset="0.59" style="stop-color:#FFCC05"/>
			<stop  offset="0.66" style="stop-color:#FCE773"/>
			<stop  offset="0.78" style="stop-color:#FFF4C2"/>
			<stop  offset="0.92" style="stop-color:#FFD00D"/>
			<stop  offset="0.97" style="stop-color:#D58F29"/>
			<stop  offset="1" style="stop-color:#FCE773"/>
		</linearGradient>
		<path class="st2" d="M12,39.2c0,3.8,1.9,5.7,5.8,5.7c2.3,0,4.9-0.9,7.8-2.6c1.3-1.4,2.4-2.6,3.4-3.5c2.1-2.1,3.5-3.3,4.4-3.9
			c0.8-0.4,1.4-0.7,1.8-0.7c0.3,0,0.5,0.1,0.6,0.4c0.1,0.3-0.1,0.7-0.6,1.2c-1.5,1.7-3.9,3.8-7.4,6.1c-4.2,5-8.3,10.2-12.4,15.8
			c-0.5,0.7-1.1,1.5-1.7,2.4c-2.6,3.7-4.5,6.6-5.7,8.7c-1.9,3.1-3.1,5.6-3.7,7.4c-0.1,0.3-0.2,0.6-0.1,0.8c0,0.2,0.2,0.3,0.4,0.4
			c0.4,0,1.1-0.7,2.3-2.2c0.8-1,1.6-2.2,2.6-3.6l5.5-7.8c2.4-3.4,5.3-7.3,8.8-11.5c2.5-3.1,4.6-5.5,6.2-7.3c2-2.3,3.6-3.8,4.7-4.7
			c0.2-0.2,0.3-0.2,0.4-0.2c0,0.1-0.4,0.6-1.2,1.4c-1,1-2.2,2.2-3.6,3.8L28,47.9c-2.2,2.5-4.9,5.9-8.1,10.1
			c-4.5,6.1-7.8,10.7-10,13.7l-1.4,2c-0.8,1.1-1.6,2.1-2.3,3S4.7,78,4,77.9c-0.7-0.2-1-0.7-1-1.5c0-0.9,0.4-2.3,1.3-4.1
			c1.3-2.6,3.2-6,5.9-10c4.1-6.4,9.1-12.8,14.9-19.3v0c-2.3,1.5-4.8,2.3-7.3,2.3c-2.2,0-3.9-0.5-5.3-1.4C11,42.7,10.2,41.2,10,39
			c-0.3-3.1,0.8-6.6,3.3-10.7c-1.7-1-3-2.4-3.9-4.2s-1.2-3.7-0.9-5.6c0.5-3.9,2.8-7.3,6.8-10.1c4.3-3,9.4-4.5,15.2-4.5
			c5.8,0,9.6,1.7,11.3,5c1.5-0.3,2.9-0.4,4.4-0.4c4.1,0.1,6.1,1.7,6.1,4.6c0,1.3-0.4,2.6-1.1,4c-1.5,2.8-4.1,5.4-7.8,7.7
			c-2.9,1.9-6,3.3-9.4,4.4c-3.5,1.1-6.9,1.6-10.2,1.6c-3.1,0-5.9-0.5-8.4-1.5C13.1,33,12,36.3,12,39.2L12,39.2z M13.6,27.9
			c2.5-4.2,6-7.9,10.3-11.1C29.2,12.9,35,10.3,41.3,9c-1.8-3.1-5.4-4.6-10.9-4.6c-5.6,0-10.4,1.5-14.4,4.5c-3.6,2.7-5.7,6-6.2,9.8
			c-0.1,1-0.2,2,0,2.8C10.2,24.3,11.5,26.5,13.6,27.9L13.6,27.9z M23.7,30.5c4.4,0,8.7-0.9,13.1-2.8c4.2-1.7,7.6-3.9,10.3-6.6
			c2.8-2.7,4.2-5.4,4.2-7.9c0-2.8-1.8-4.3-5.3-4.4c-1.2,0-2.6,0.1-4.2,0.5c0.4,1,0.5,2,0.5,3.1c-0.1,2.1-0.8,4.1-2.2,5.9
			s-3,3.2-5,4.1c-2.4,1.1-4.9,1.7-7.3,1.7c-1.3,0-1.9-0.1-1.8-0.4c0,0,0.1,0,0.1,0c0.2,0,0.5,0,0.8,0.1s0.6,0.1,0.8,0.1
			c0.5,0,1.1-0.1,1.9-0.2c2.8-0.6,5.2-1.7,7.5-3.5c2.8-2.3,4.3-4.9,4.6-7.8c0.1-0.9,0-1.9-0.4-2.9c-2.1,0.5-4.1,1.2-6.1,2.1
			c-5.1,2.4-9.8,5.8-14.2,10.1c-2.3,2.3-4.2,4.7-5.7,7.2C17.9,30,20.6,30.5,23.7,30.5L23.7,30.5z M28.6,41.1c3-2.2,5.2-4,6.5-5.5
			c0.4-0.4,0.5-0.7,0.4-0.8c-0.1-0.1-0.2-0.2-0.3-0.2c-0.6,0-1.4,0.6-2.4,1.8C30.2,39.2,28.8,40.8,28.6,41.1L28.6,41.1z"/>
		<linearGradient id="SVGID_2_" gradientUnits="userSpaceOnUse" x1="34.5937" y1="34.9552" x2="50.3613" y2="34.9552">
			<stop  offset="0" style="stop-color:#B8822C"/>
			<stop  offset="0.1" style="stop-color:#FCF4A4"/>
			<stop  offset="0.31" style="stop-color:#B37D2B"/>
			<stop  offset="0.34" style="stop-color:#C08B24"/>
			<stop  offset="0.4" style="stop-color:#DCA717"/>
			<stop  offset="0.47" style="stop-color:#EFBC0D"/>
			<stop  offset="0.53" style="stop-color:#FBC807"/>
			<stop  offset="0.59" style="stop-color:#FFCC05"/>
			<stop  offset="0.66" style="stop-color:#FCE773"/>
			<stop  offset="0.78" style="stop-color:#FFF4C2"/>
			<stop  offset="0.92" style="stop-color:#FFD00D"/>
			<stop  offset="0.97" style="stop-color:#D58F29"/>
			<stop  offset="1" style="stop-color:#FCE773"/>
		</linearGradient>
		<path class="st3" d="M47.3,34.5l-0.7,1c0.6-0.1,1.2-0.4,1.5-0.9c0.2-0.4,0.5-0.9,0.8-1.5c0.2-0.3,0.5-0.5,0.7-0.5H50
			c0.2,0.1,0.4,0.3,0.4,0.7c0,0.2,0,0.3-0.1,0.4c-0.2,0.6-0.8,1.1-1.9,1.7c-0.6,0.3-1.3,0.6-2.2,0.7c-0.5,0.8-1.2,1.8-2.1,3.1
			c-1.1,1.7-1.6,2.8-1.6,3.3c0,0.4,0.2,0.6,0.6,0.6c0.7,0,1.8-0.8,3.4-2.5c1.5-1.6,2.3-2.4,2.3-2.4c0,0,0.1,0,0.1,0s0.1,0,0.1,0.1
			s0,0,0,0.1c-0.1,0.2-0.5,0.6-1.1,1.3c-0.3,0.3-0.6,0.7-1.1,1.1c-1.7,1.8-3,2.7-3.9,2.7c-1,0-1.5-0.8-1.5-2.3c0-0.6,0.1-1,0.2-1.4
			l-0.1-0.1L40,41.5c-1.4,1.4-2.5,2.1-3.3,2.1c-0.6,0-1-0.2-1.2-0.5S35,42.2,35,41.6c0-1.3,0.6-2.7,1.9-4.4l1.8-2.4l-0.1-0.1
			c-0.6,0.4-1.7,1.5-3.3,3.3c-0.3,0.4-0.5,0.6-0.6,0.6c-0.1,0-0.1-0.1-0.1-0.2c0-0.1,0.1-0.3,0.3-0.5s0.7-0.8,1.5-1.6
			s1.8-1.7,2.8-2.6l2-0.1L37,40.1c-0.6,1-0.9,1.8-0.9,2.4c0,0.4,0.2,0.6,0.6,0.6c0.9,0,2.3-1.1,4.3-3.3c1.9-2.1,3.4-4.2,4.6-6.2
			l2.3-0.1C47.7,34,47.5,34.3,47.3,34.5z M46.1,26.3l0.2,0c1.2,0.1,1.9,0.6,1.9,1.4c0,1-0.6,1.8-1.9,2.3c-1.1,0.5-2,1.1-2.7,1.8
			c-0.1,0.2-0.2,0.3-0.3,0.3C43,32.2,43,32,43,31.8c1-1.2,1.7-2,2.3-2.3c1-0.6,1.5-1.2,1.4-1.7c-0.1-0.5-0.7-0.7-1.8-0.6
			c-0.8,0.1-1.1,0.4-1.1,0.9c0.4,0.2,0.6,0.3,0.6,0.6c0,0.3-0.3,0.5-0.8,0.5c-0.5,0-0.7-0.2-0.7-0.7c0-0.6,0.4-1.1,1.3-1.5
			C44.8,26.5,45.5,26.3,46.1,26.3z"/>
		<linearGradient id="SVGID_3_" gradientUnits="userSpaceOnUse" x1="48.7617" y1="36.3966" x2="57.3222" y2="36.3966">
			<stop  offset="0" style="stop-color:#B8822C"/>
			<stop  offset="0.1" style="stop-color:#FCF4A4"/>
			<stop  offset="0.31" style="stop-color:#B37D2B"/>
			<stop  offset="0.34" style="stop-color:#C08B24"/>
			<stop  offset="0.4" style="stop-color:#DCA717"/>
			<stop  offset="0.47" style="stop-color:#EFBC0D"/>
			<stop  offset="0.53" style="stop-color:#FBC807"/>
			<stop  offset="0.59" style="stop-color:#FFCC05"/>
			<stop  offset="0.66" style="stop-color:#FCE773"/>
			<stop  offset="0.78" style="stop-color:#FFF4C2"/>
			<stop  offset="0.92" style="stop-color:#FFD00D"/>
			<stop  offset="0.97" style="stop-color:#D58F29"/>
			<stop  offset="1" style="stop-color:#FCE773"/>
		</linearGradient>
		<path class="st4" d="M52.9,33.7l2.3-0.1c-0.4,0.6-1.6,2.5-3.5,5.7c-1,1.7-1.5,2.7-1.5,3.1c0,0.5,0.2,0.8,0.7,0.8
			c0.9,0,2.3-0.9,4-2.7c0.2-0.3,0.7-0.8,1.4-1.5c0.2-0.2,0.4-0.5,0.8-0.9c0.1,0,0.2,0.1,0.2,0.1c0,0.1-0.7,0.9-2.2,2.5
			c-1.7,1.9-3.2,2.8-4.2,2.8c-1.2,0-1.7-0.6-1.7-1.9c0-1.2,0.6-2.7,1.8-4.4c0.4-0.5,0.9-1.3,1.7-2.3l-0.1-0.1
			c-1.1,1.1-2.1,2.2-3.1,3.3c-0.2,0.3-0.4,0.4-0.5,0.4c-0.1-0.1-0.1-0.2-0.1-0.2l0.1-0.2c0,0,0.3-0.4,0.9-1.1
			c0.3-0.3,0.9-0.9,1.7-1.8C52.3,34.5,52.7,34,52.9,33.7z M54.7,30.6c0-0.9,0.4-1.4,1.3-1.4c0.5,0,0.8,0.3,0.8,0.9
			c0,0.9-0.4,1.4-1.2,1.4C55,31.5,54.7,31.2,54.7,30.6z"/>
		<linearGradient id="SVGID_4_" gradientUnits="userSpaceOnUse" x1="67.1835" y1="35.1574" x2="80.2792" y2="35.1574">
			<stop  offset="0" style="stop-color:#B8822C"/>
			<stop  offset="0.1" style="stop-color:#FCF4A4"/>
			<stop  offset="0.31" style="stop-color:#B37D2B"/>
			<stop  offset="0.34" style="stop-color:#C08B24"/>
			<stop  offset="0.4" style="stop-color:#DCA717"/>
			<stop  offset="0.47" style="stop-color:#EFBC0D"/>
			<stop  offset="0.53" style="stop-color:#FBC807"/>
			<stop  offset="0.59" style="stop-color:#FFCC05"/>
			<stop  offset="0.66" style="stop-color:#FCE773"/>
			<stop  offset="0.78" style="stop-color:#FFF4C2"/>
			<stop  offset="0.92" style="stop-color:#FFD00D"/>
			<stop  offset="0.97" style="stop-color:#D58F29"/>
			<stop  offset="1" style="stop-color:#FCE773"/>
		</linearGradient>
		<path class="st5" d="M73.9,30.3l2.1-3.4l2.2-0.1l-2.3,3.6h4.2c0.1,0.1,0.2,0.2,0.2,0.2c-0.1,0.1-0.2,0.2-0.2,0.2h-4.5
			c-4.6,7-6.8,11-6.8,11.8c0,0.4,0.2,0.6,0.7,0.6c0.9,0,2.2-0.9,4-2.6c0.6-0.6,1.2-1.2,1.7-1.9c0.3-0.3,0.4-0.5,0.5-0.5
			c0.1,0,0.2,0.1,0.2,0.2c0,0.1-0.3,0.5-0.9,1.2c-0.3,0.3-0.6,0.7-1,1c-2,2-3.5,3-4.5,3c-1.1,0-1.7-0.6-1.7-1.8
			c0-1.4,1.1-3.7,3.4-6.9L71,34.9l-2.2,2.5c-0.4,0.5-0.8,0.9-1,1.1c-0.1,0.2-0.2,0.3-0.4,0.4c-0.1,0-0.1-0.1-0.2-0.1
			c0-0.1,0.1-0.2,0.2-0.4c0.9-0.9,2.1-2.3,3.6-4.2c0.8-1,1.7-2.2,2.7-3.5h-1.3c-0.1,0-0.1-0.1-0.1-0.2c0,0,0-0.1,0.1-0.2l0.1-0.1
			H73.9z"/>
		<linearGradient id="SVGID_5_" gradientUnits="userSpaceOnUse" x1="75.5331" y1="36.3966" x2="84.0937" y2="36.3966">
			<stop  offset="0" style="stop-color:#B8822C"/>
			<stop  offset="0.1" style="stop-color:#FCF4A4"/>
			<stop  offset="0.31" style="stop-color:#B37D2B"/>
			<stop  offset="0.34" style="stop-color:#C08B24"/>
			<stop  offset="0.4" style="stop-color:#DCA717"/>
			<stop  offset="0.47" style="stop-color:#EFBC0D"/>
			<stop  offset="0.53" style="stop-color:#FBC807"/>
			<stop  offset="0.59" style="stop-color:#FFCC05"/>
			<stop  offset="0.66" style="stop-color:#FCE773"/>
			<stop  offset="0.78" style="stop-color:#FFF4C2"/>
			<stop  offset="0.92" style="stop-color:#FFD00D"/>
			<stop  offset="0.97" style="stop-color:#D58F29"/>
			<stop  offset="1" style="stop-color:#FCE773"/>
		</linearGradient>
		<path class="st6" d="M79.7,33.7l2.3-0.1c-0.4,0.6-1.6,2.5-3.5,5.7C77.5,41,77,42,77,42.3c0,0.5,0.2,0.8,0.7,0.8
			c0.9,0,2.3-0.9,4-2.7c0.2-0.3,0.7-0.8,1.4-1.5c0.2-0.2,0.4-0.5,0.8-0.9c0.1,0,0.2,0.1,0.2,0.1c0,0.1-0.7,0.9-2.2,2.5
			c-1.7,1.9-3.2,2.8-4.2,2.8c-1.2,0-1.7-0.6-1.7-1.9c0-1.2,0.6-2.7,1.8-4.4c0.4-0.5,0.9-1.3,1.7-2.3l-0.1-0.1
			c-1.1,1.1-2.1,2.2-3.1,3.3c-0.2,0.3-0.4,0.4-0.5,0.4c-0.1-0.1-0.1-0.2-0.1-0.2l0.1-0.2c0,0,0.3-0.4,0.9-1.1
			c0.3-0.3,0.9-0.9,1.7-1.8C79,34.5,79.5,34,79.7,33.7z M81.4,30.6c0-0.9,0.4-1.4,1.3-1.4c0.5,0,0.8,0.3,0.8,0.9
			c0,0.9-0.4,1.4-1.2,1.4C81.7,31.5,81.4,31.2,81.4,30.6z"/>
		<linearGradient id="SVGID_6_" gradientUnits="userSpaceOnUse" x1="83.8828" y1="38.5763" x2="100.3007" y2="38.5763">
			<stop  offset="0" style="stop-color:#B8822C"/>
			<stop  offset="0.1" style="stop-color:#FCF4A4"/>
			<stop  offset="0.31" style="stop-color:#B37D2B"/>
			<stop  offset="0.34" style="stop-color:#C08B24"/>
			<stop  offset="0.4" style="stop-color:#DCA717"/>
			<stop  offset="0.47" style="stop-color:#EFBC0D"/>
			<stop  offset="0.53" style="stop-color:#FBC807"/>
			<stop  offset="0.59" style="stop-color:#FFCC05"/>
			<stop  offset="0.66" style="stop-color:#FCE773"/>
			<stop  offset="0.78" style="stop-color:#FFF4C2"/>
			<stop  offset="0.92" style="stop-color:#FFD00D"/>
			<stop  offset="0.97" style="stop-color:#D58F29"/>
			<stop  offset="1" style="stop-color:#FCE773"/>
		</linearGradient>
		<path class="st7" d="M86.8,43.4l-2.4,0.2c3.8-5.6,5.7-8.7,5.7-9.1c0-0.3-0.2-0.5-0.6-0.5c-0.9,0-2.2,0.9-3.8,2.7
			c-1.2,1.3-1.8,2-1.8,2c-0.1-0.1-0.1-0.2-0.1-0.2c0-0.1,0.5-0.6,1.4-1.7c1.1-1.2,1.9-2,2.4-2.4c0.8-0.6,1.5-0.9,2.1-0.9
			c0.9,0,1.4,0.6,1.4,1.7c0,1.1-0.8,2.6-2.3,4.5l0.1,0.1c0.9-0.9,2-2.1,3.5-3.6c1.9-1.8,3.2-2.7,3.9-2.7c0.4,0,0.7,0.2,0.9,0.5
			s0.4,0.7,0.4,1.1c0,0.8-0.5,1.8-1.4,3.1c-1.6,2.1-2.4,3.5-2.4,4.1c0,0.5,0.2,0.7,0.6,0.7c0.7,0,2-1,3.8-2.9c1.3-1.4,2-2.1,1.9-2.1
			c0,0,0,0,0.1,0.1s0,0.1,0.1,0.1c0,0.2-0.7,1.1-2.2,2.6c-1.7,1.7-3,2.6-3.7,2.6c-1.1,0-1.6-0.8-1.6-2.3c0-0.8,0.5-2,1.5-3.6
			c0.1-0.2,0.9-1.3,2.4-3.3c0-0.3-0.2-0.4-0.5-0.4c-0.8,0-2.4,1.3-4.9,4C88.9,40.6,87.5,42.3,86.8,43.4z"/>
		<linearGradient id="SVGID_7_" gradientUnits="userSpaceOnUse" x1="110.2148" y1="38.5763" x2="126.6328" y2="38.5763">
			<stop  offset="0" style="stop-color:#B8822C"/>
			<stop  offset="0.1" style="stop-color:#FCF4A4"/>
			<stop  offset="0.31" style="stop-color:#B37D2B"/>
			<stop  offset="0.34" style="stop-color:#C08B24"/>
			<stop  offset="0.4" style="stop-color:#DCA717"/>
			<stop  offset="0.47" style="stop-color:#EFBC0D"/>
			<stop  offset="0.53" style="stop-color:#FBC807"/>
			<stop  offset="0.59" style="stop-color:#FFCC05"/>
			<stop  offset="0.66" style="stop-color:#FCE773"/>
			<stop  offset="0.78" style="stop-color:#FFF4C2"/>
			<stop  offset="0.92" style="stop-color:#FFD00D"/>
			<stop  offset="0.97" style="stop-color:#D58F29"/>
			<stop  offset="1" style="stop-color:#FCE773"/>
		</linearGradient>
		<path class="st8" d="M113.2,43.4l-2.4,0.2c3.8-5.6,5.7-8.7,5.7-9.1c0-0.3-0.2-0.5-0.6-0.5c-0.9,0-2.2,0.9-3.8,2.7
			c-1.2,1.3-1.8,2-1.8,2c-0.1-0.1-0.1-0.2-0.1-0.2c0-0.1,0.5-0.6,1.4-1.7c1.1-1.2,1.9-2,2.4-2.4c0.8-0.6,1.5-0.9,2.1-0.9
			c0.9,0,1.4,0.6,1.4,1.7c0,1.1-0.8,2.6-2.3,4.5l0.1,0.1c0.9-0.9,2-2.1,3.5-3.6c1.9-1.8,3.2-2.7,3.9-2.7c0.4,0,0.7,0.2,0.9,0.5
			s0.4,0.7,0.4,1.1c0,0.8-0.5,1.8-1.4,3.1c-1.6,2.1-2.4,3.5-2.4,4.1c0,0.5,0.2,0.7,0.6,0.7c0.7,0,2-1,3.8-2.9c1.3-1.4,2-2.1,1.9-2.1
			c0,0,0,0,0.1,0.1s0,0.1,0.1,0.1c0,0.2-0.7,1.1-2.2,2.6c-1.7,1.7-3,2.6-3.7,2.6c-1.1,0-1.6-0.8-1.6-2.3c0-0.8,0.5-2,1.5-3.6
			c0.1-0.2,0.9-1.3,2.4-3.3c0-0.3-0.2-0.4-0.5-0.4c-0.8,0-2.4,1.3-4.9,4C115.3,40.6,113.8,42.3,113.2,43.4z"/>
		<linearGradient id="SVGID_8_" gradientUnits="userSpaceOnUse" x1="125.121" y1="32.7404" x2="141.0995" y2="32.7404">
			<stop  offset="0" style="stop-color:#B8822C"/>
			<stop  offset="0.1" style="stop-color:#FCF4A4"/>
			<stop  offset="0.31" style="stop-color:#B37D2B"/>
			<stop  offset="0.34" style="stop-color:#C08B24"/>
			<stop  offset="0.4" style="stop-color:#DCA717"/>
			<stop  offset="0.47" style="stop-color:#EFBC0D"/>
			<stop  offset="0.53" style="stop-color:#FBC807"/>
			<stop  offset="0.59" style="stop-color:#FFCC05"/>
			<stop  offset="0.66" style="stop-color:#FCE773"/>
			<stop  offset="0.78" style="stop-color:#FFF4C2"/>
			<stop  offset="0.92" style="stop-color:#FFD00D"/>
			<stop  offset="0.97" style="stop-color:#D58F29"/>
			<stop  offset="1" style="stop-color:#FCE773"/>
		</linearGradient>
		<path class="st9" d="M127.4,43.4l-2.2,0.2c1.9-3.3,3.8-6.6,6-9.8c-0.9,1.1-2.3,2.6-4.2,4.7c-0.2,0.2-0.3,0.3-0.3,0.3
			c-0.1-0.1-0.1-0.2-0.1-0.2c3.1-3.4,5.6-6.6,7.5-9.8l3.9-6.7l2.2-0.2c-0.1,0.2-1,1.8-2.8,4.6c-0.7,1.2-2.1,3.6-4.2,7
			c-1.5,2.5-2.7,4.5-3.6,6.1l0.1,0.1c3.6-4.1,6.1-6.2,7.3-6.2c1,0,1.4,0.6,1.4,1.9c0,0.6-0.7,1.9-2,3.7s-2,3-2,3.5
			c0,0.3,0.2,0.5,0.5,0.5c0.9,0,2.3-1,4.3-3.1c0.2-0.2,0.5-0.6,1.1-1.3c0.4-0.4,0.6-0.7,0.7-0.7c0.1,0,0.2,0.1,0.2,0.2
			c-0.2,0.2-0.3,0.3-0.3,0.4c-0.8,1-1.3,1.5-1.5,1.7c-2,2.2-3.6,3.2-4.6,3.2c-1,0-1.4-0.7-1.4-2c0-1,0.5-2.2,1.5-3.7
			c0.8-1.1,1.7-2.3,2.5-3.4c0-0.3-0.1-0.4-0.4-0.4c-0.9,0-2.5,1.3-5,3.9C129.4,40.4,128,42.2,127.4,43.4z"/>
		<linearGradient id="SVGID_9_" gradientUnits="userSpaceOnUse" x1="140.7304" y1="33.4611" x2="155.5663" y2="33.4611">
			<stop  offset="0" style="stop-color:#B8822C"/>
			<stop  offset="0.1" style="stop-color:#FCF4A4"/>
			<stop  offset="0.31" style="stop-color:#B37D2B"/>
			<stop  offset="0.34" style="stop-color:#C08B24"/>
			<stop  offset="0.4" style="stop-color:#DCA717"/>
			<stop  offset="0.47" style="stop-color:#EFBC0D"/>
			<stop  offset="0.53" style="stop-color:#FBC807"/>
			<stop  offset="0.59" style="stop-color:#FFCC05"/>
			<stop  offset="0.66" style="stop-color:#FCE773"/>
			<stop  offset="0.78" style="stop-color:#FFF4C2"/>
			<stop  offset="0.92" style="stop-color:#FFD00D"/>
			<stop  offset="0.97" style="stop-color:#D58F29"/>
			<stop  offset="1" style="stop-color:#FCE773"/>
		</linearGradient>
		<path class="st10" d="M152.2,33.8l1.7-0.1c-0.7,0.8-1.7,2.3-3,4.4c-1.5,2.4-2.2,3.9-2.2,4.5c0,0.3,0.2,0.5,0.6,0.5
			c0.9,0,2.6-1.4,5.1-4.3l0.6-0.6c0.1,0,0.1,0,0.2,0.1s0,0.1,0.1,0.1c-0.2,0.2-0.4,0.5-0.7,0.8s-0.7,0.8-1.3,1.4
			c-1.9,1.9-3.2,2.9-4,2.9c-1.1,0-1.6-0.8-1.6-2.5v-0.7c-0.9,0.9-1.6,1.6-2.1,2c-1,0.8-1.8,1.2-2.3,1.2c-1.5,0-2.2-1.1-2.2-3.3
			c0-0.6,0-1.2,0.1-1.7l-0.2,0.1l-0.1-0.1c0-0.1,0.2-0.4,0.6-0.8c0.9-1.1,2-2.1,3.2-2.9c1.4-0.9,2.8-1.3,4.1-1.3
			c1.1,0,1.6,0.6,1.6,1.7c0,0.4-0.1,0.7-0.2,1l0.1,0.1c0.3-0.5,0.7-1.1,1.2-2C151.6,34,151.8,33.8,152.2,33.8z M142.4,42
			c0,0.8,0.3,1.1,0.8,1.1c1.2,0,2.6-1,4.2-3.1c1.6-2,2.4-3.6,2.4-4.8c0-0.9-0.4-1.3-1.1-1.3c-1.3,0-2.8,1-4.2,3
			C143.1,38.9,142.4,40.6,142.4,42z M154.8,29.8l0.8,0c-0.6,0.6-1.5,1.2-2.7,1.8c-1,0.5-2,0.8-3,0.8c-1.7,0-2.9-0.9-3.4-2.7h1.8
			c0.1,1.2,1,1.8,2.5,1.8C152,31.6,153.3,31,154.8,29.8z M154.5,23.3c0.2,0,0.4,0.1,0.6,0.3s0.2,0.3,0.2,0.5c0,0.7-0.6,1.8-1.9,3.1
			s-2.2,2-2.8,2c-0.1,0-0.2,0-0.2-0.1c0.5-0.4,1.2-1.1,2.1-2c0.2-0.4,0.5-1.2,0.9-2.5C153.5,23.8,153.9,23.3,154.5,23.3z"/>
		<linearGradient id="SVGID_10_" gradientUnits="userSpaceOnUse" x1="154.9863" y1="38.5763" x2="171.4042" y2="38.5763">
			<stop  offset="0" style="stop-color:#B8822C"/>
			<stop  offset="0.1" style="stop-color:#FCF4A4"/>
			<stop  offset="0.31" style="stop-color:#B37D2B"/>
			<stop  offset="0.34" style="stop-color:#C08B24"/>
			<stop  offset="0.4" style="stop-color:#DCA717"/>
			<stop  offset="0.47" style="stop-color:#EFBC0D"/>
			<stop  offset="0.53" style="stop-color:#FBC807"/>
			<stop  offset="0.59" style="stop-color:#FFCC05"/>
			<stop  offset="0.66" style="stop-color:#FCE773"/>
			<stop  offset="0.78" style="stop-color:#FFF4C2"/>
			<stop  offset="0.92" style="stop-color:#FFD00D"/>
			<stop  offset="0.97" style="stop-color:#D58F29"/>
			<stop  offset="1" style="stop-color:#FCE773"/>
		</linearGradient>
		<path class="st11" d="M157.9,43.4l-2.4,0.2c3.8-5.6,5.7-8.7,5.7-9.1c0-0.3-0.2-0.5-0.6-0.5c-0.9,0-2.2,0.9-3.8,2.7
			c-1.2,1.3-1.8,2-1.8,2c-0.1-0.1-0.1-0.2-0.1-0.2c0-0.1,0.5-0.6,1.4-1.7c1.1-1.2,1.9-2,2.4-2.4c0.8-0.6,1.5-0.9,2.1-0.9
			c0.9,0,1.4,0.6,1.4,1.7c0,1.1-0.8,2.6-2.3,4.5l0.1,0.1c0.9-0.9,2-2.1,3.5-3.6c1.9-1.8,3.2-2.7,3.9-2.7c0.4,0,0.7,0.2,0.9,0.5
			s0.4,0.7,0.4,1.1c0,0.8-0.5,1.8-1.4,3.1c-1.6,2.1-2.4,3.5-2.4,4.1c0,0.5,0.2,0.7,0.6,0.7c0.7,0,2-1,3.8-2.9c1.3-1.4,2-2.1,1.9-2.1
			c0,0,0,0,0.1,0.1s0,0.1,0.1,0.1c0,0.2-0.7,1.1-2.2,2.6c-1.7,1.7-3,2.6-3.7,2.6c-1.1,0-1.6-0.8-1.6-2.3c0-0.8,0.5-2,1.5-3.6
			c0.1-0.2,0.9-1.3,2.4-3.3c0-0.3-0.2-0.4-0.5-0.4c-0.8,0-2.4,1.3-4.9,4C160,40.6,158.6,42.3,157.9,43.4z"/>
	</g>
</g>
</svg>
