<?xml version="1.0" encoding="utf-8"?>
<!-- Generator: Adobe Illustrator 24.0.2, SVG Export Plug-In . SVG Version: 6.00 Build 0)  -->
<svg version="1.1" id="Layer_1" xmlns="http://www.w3.org/2000/svg" xmlns:xlink="http://www.w3.org/1999/xlink" x="0px" y="0px"
	 viewBox="0 0 180 110" style="enable-background:new 0 0 180 110;" xml:space="preserve">
<style type="text/css">
	.st0{fill:#FBF1CD;}
	.st1{fill:#CDC6AB;}
	.st2{fill:#FFFFFF;}
</style>
<g>
	<g>
		<g>
			<g>
				<g id="XMLID_15_">
					<path id="XMLID_16_" class="st0" d="M10.9,100.7c0,0,0.1-0.1,0.4-0.2c0.2-0.2,0.6-0.4,1.1-0.7c1-0.6,2.5-1.3,4.7-1.8
						c1.1-0.2,2.3-0.4,3.7-0.4c1.4,0,2.9,0.2,4.4,0.7c0.4,0.1,0.8,0.2,1.2,0.4c0.4,0.1,0.8,0.3,1.2,0.5c0.1,0,0.2,0.1,0.3,0.1
						c0.1,0,0.2,0.1,0.3,0.2c0.2,0.1,0.4,0.2,0.6,0.3c0.2,0.1,0.4,0.2,0.6,0.3c0.2,0.1,0.4,0.2,0.6,0.3c0.4,0.2,0.8,0.4,1.2,0.7
						c0.2,0.1,0.4,0.2,0.6,0.3c0.2,0.1,0.4,0.2,0.6,0.3c0.7,0.4,1.5,0.7,2.4,0.8c1.7,0.4,3.5,0.3,5.3-0.2c0.9-0.3,1.7-0.7,2.5-1.2
						c0.9-0.6,1.8-1.2,2.8-1.9c0.5-0.3,0.9-0.6,1.4-1c0.2-0.2,0.5-0.3,0.7-0.5l0.4-0.2c0.1-0.1,0.3-0.2,0.4-0.3
						c1.2-0.7,2.5-1.3,3.8-1.6c1.4-0.3,2.8-0.4,4.3-0.3c1.5,0.1,2.9,0.5,4.3,1.1c0.3,0.2,0.7,0.3,1,0.5l0.5,0.3l0.4,0.2
						c0.6,0.3,1.1,0.7,1.7,1c0.6,0.3,1.1,0.7,1.7,1c0.3,0.2,0.6,0.3,0.9,0.5l0.4,0.3c0.1,0.1,0.3,0.2,0.4,0.2
						c0.2,0.1,0.5,0.3,0.7,0.4c0.1,0.1,0.2,0.1,0.4,0.2l0.4,0.1l0.2,0.1l0.2,0.1l0.4,0.1c0.1,0,0.3,0.1,0.4,0.1
						c0.1,0,0.3,0.1,0.4,0.1c1.1,0.2,2.2,0.2,3.3,0c0.5-0.1,1.1-0.3,1.6-0.4l0.4-0.2l0.2-0.1l0.2-0.1l0.4-0.2l0.4-0.2l0.2-0.1
						c0,0,0.1,0,0.1-0.1l0.1-0.1l0.4-0.3c0.3-0.2,0.6-0.4,0.9-0.6c0.6-0.4,1.2-0.8,1.8-1.2c0.6-0.4,1.2-0.8,1.8-1.2l0.1-0.1l0.1-0.1
						l0.3-0.2c0.2-0.1,0.4-0.2,0.6-0.3c0.4-0.2,0.8-0.4,1.2-0.6c1.6-0.7,3.4-1,5.2-1c1.8,0,3.6,0.3,5.2,1c0.4,0.2,0.8,0.4,1.2,0.6
						c0.2,0.1,0.4,0.2,0.6,0.3l0.3,0.2l0.1,0.1l0.1,0.1c0.6,0.4,1.2,0.8,1.8,1.2c0.6,0.4,1.2,0.8,1.8,1.2c0.3,0.2,0.6,0.4,0.9,0.6
						l0.4,0.3l0.1,0.1c0,0,0.1,0,0.1,0.1l0.2,0.1l0.4,0.2l0.4,0.2l0.2,0.1l0.2,0.1l0.4,0.2c0.5,0.2,1.1,0.4,1.6,0.4
						c1.1,0.2,2.2,0.2,3.3,0c0.1,0,0.3-0.1,0.4-0.1c0.1,0,0.3-0.1,0.4-0.1l0.4-0.1l0.2-0.1l0.2-0.1l0.4-0.1c0.1-0.1,0.2-0.1,0.4-0.2
						c0.2-0.1,0.5-0.2,0.7-0.4c0.1-0.1,0.3-0.2,0.4-0.2l0.4-0.3c0.3-0.2,0.6-0.3,0.9-0.5c0.6-0.3,1.1-0.7,1.7-1
						c0.6-0.3,1.1-0.7,1.7-1l0.4-0.2l0.5-0.3c0.3-0.2,0.7-0.3,1-0.5c1.4-0.6,2.9-1,4.3-1.1c1.5-0.1,2.9,0,4.3,0.3
						c1.4,0.3,2.7,0.9,3.8,1.6c0.1,0.1,0.3,0.2,0.4,0.3l0.4,0.2c0.2,0.2,0.5,0.3,0.7,0.5c0.5,0.3,1,0.6,1.4,1
						c0.9,0.6,1.9,1.3,2.8,1.9c0.8,0.5,1.6,0.9,2.5,1.2c1.8,0.6,3.6,0.6,5.3,0.2c0.8-0.2,1.6-0.5,2.4-0.8c0.2-0.1,0.4-0.2,0.6-0.3
						c0.2-0.1,0.4-0.2,0.6-0.3c0.4-0.2,0.8-0.4,1.2-0.7c0.2-0.1,0.4-0.2,0.6-0.3c0.2-0.1,0.4-0.2,0.6-0.3c0.2-0.1,0.4-0.2,0.6-0.3
						c0.1-0.1,0.2-0.1,0.3-0.2c0.1,0,0.2-0.1,0.3-0.1c0.4-0.2,0.8-0.4,1.2-0.5c0.4-0.1,0.8-0.3,1.2-0.4c1.6-0.4,3-0.6,4.4-0.7
						c1.4,0,2.6,0.1,3.7,0.4c2.2,0.5,3.7,1.2,4.7,1.8c0.5,0.3,0.9,0.5,1.1,0.7c0.2,0.2,0.4,0.2,0.4,0.2s-0.1-0.1-0.4-0.2
						c-0.3-0.1-0.6-0.3-1.2-0.5c-1-0.4-2.6-1-4.7-1.2c-1.1-0.1-2.2-0.1-3.5,0c-1.3,0.2-2.6,0.5-4,1c-0.3,0.1-0.7,0.3-1,0.4
						c-0.3,0.1-0.7,0.4-1,0.5c-0.1,0-0.2,0.1-0.3,0.1c-0.1,0.1-0.2,0.1-0.2,0.2c-0.2,0.1-0.3,0.2-0.5,0.3c-0.2,0.1-0.3,0.2-0.5,0.3
						c-0.2,0.1-0.4,0.2-0.5,0.4c-0.4,0.2-0.7,0.5-1.1,0.8c-0.2,0.1-0.4,0.3-0.6,0.4c-0.2,0.1-0.4,0.3-0.6,0.4
						c-0.9,0.5-1.8,1-2.8,1.3c-2,0.6-4.4,0.8-6.7,0.2c-1.2-0.3-2.3-0.7-3.4-1.3c-0.1-0.1-0.3-0.1-0.4-0.2l-0.4-0.2
						c-0.2-0.1-0.5-0.3-0.7-0.4c-0.5-0.3-1-0.6-1.5-0.9c-0.5-0.3-1-0.6-1.5-0.9c-0.2-0.1-0.5-0.3-0.8-0.4l-0.4-0.2l-0.3-0.2
						c-0.9-0.5-1.8-0.8-2.8-1c-1-0.2-2-0.2-3-0.1c-1,0.1-2,0.4-3,0.9c-0.2,0.1-0.5,0.2-0.7,0.4l-0.3,0.2l-0.4,0.3
						c-0.5,0.4-1.1,0.7-1.6,1.1c-0.5,0.4-1.1,0.7-1.7,1.1c-0.3,0.2-0.6,0.4-0.8,0.5l-0.4,0.3c-0.1,0.1-0.3,0.2-0.5,0.3
						c-0.3,0.2-0.7,0.4-1,0.6c-0.2,0.1-0.4,0.2-0.5,0.3l-0.6,0.2l-0.3,0.1l-0.3,0.1l-0.6,0.2c-0.2,0.1-0.4,0.1-0.6,0.2
						c-0.2,0.1-0.4,0.1-0.6,0.1c-1.6,0.3-3.3,0.4-5,0.1c-0.8-0.1-1.7-0.4-2.5-0.6l-0.6-0.2l-0.3-0.1l-0.3-0.1l-0.6-0.3
						c-0.2-0.1-0.4-0.2-0.6-0.3l-0.3-0.2c-0.1,0-0.1-0.1-0.1-0.1l-0.1-0.1l-0.5-0.3c-0.3-0.2-0.6-0.4-0.9-0.6
						c-0.6-0.4-1.2-0.8-1.8-1.1c-0.6-0.4-1.2-0.8-1.8-1.1l-0.1-0.1l-0.1-0.1l-0.2-0.1c-0.1-0.1-0.2-0.2-0.4-0.2
						c-0.3-0.1-0.5-0.3-0.8-0.3c-1.1-0.4-2.2-0.6-3.4-0.6c-1.2,0-2.3,0.2-3.4,0.6c-0.3,0.1-0.5,0.2-0.8,0.3
						c-0.1,0.1-0.2,0.1-0.4,0.2l-0.2,0.1l-0.1,0.1l-0.1,0.1c-0.6,0.4-1.2,0.8-1.8,1.1c-0.6,0.4-1.2,0.8-1.8,1.1
						c-0.3,0.2-0.6,0.4-0.9,0.6l-0.5,0.3l-0.1,0.1c0,0-0.1,0-0.1,0.1l-0.3,0.2c-0.2,0.1-0.4,0.2-0.6,0.3l-0.6,0.3l-0.3,0.1l-0.3,0.1
						l-0.6,0.2c-0.8,0.3-1.6,0.5-2.5,0.6c-1.7,0.3-3.4,0.2-5-0.1c-0.2,0-0.4-0.1-0.6-0.1c-0.2-0.1-0.4-0.1-0.6-0.2l-0.6-0.2
						l-0.3-0.1l-0.3-0.1l-0.6-0.2c-0.2-0.1-0.4-0.2-0.5-0.3c-0.4-0.2-0.7-0.4-1.1-0.6c-0.2-0.1-0.3-0.2-0.5-0.3l-0.4-0.3
						c-0.3-0.2-0.6-0.4-0.8-0.5c-0.6-0.4-1.1-0.7-1.7-1.1c-0.5-0.4-1.1-0.7-1.6-1.1l-0.4-0.3l-0.3-0.2c-0.2-0.1-0.5-0.3-0.7-0.4
						c-0.9-0.5-1.9-0.8-3-0.9c-1-0.1-2-0.1-3,0.1c-1,0.2-1.9,0.5-2.8,1l-0.3,0.2l-0.4,0.2c-0.3,0.1-0.5,0.3-0.8,0.4
						c-0.5,0.3-1,0.6-1.5,0.9c-0.5,0.3-1,0.6-1.5,0.9c-0.2,0.1-0.5,0.3-0.7,0.4l-0.4,0.2c-0.1,0.1-0.2,0.1-0.4,0.2
						c-1.1,0.6-2.2,1.1-3.4,1.3c-2.3,0.6-4.7,0.4-6.7-0.2c-1-0.3-2-0.8-2.8-1.3c-0.2-0.1-0.4-0.3-0.6-0.4c-0.2-0.1-0.4-0.3-0.6-0.4
						c-0.4-0.3-0.7-0.5-1.1-0.8c-0.2-0.1-0.4-0.2-0.5-0.4c-0.2-0.1-0.4-0.2-0.5-0.3c-0.2-0.1-0.3-0.2-0.5-0.3
						c-0.1-0.1-0.2-0.1-0.2-0.2c-0.1,0-0.2-0.1-0.3-0.1c-0.3-0.2-0.7-0.4-1-0.5c-0.3-0.2-0.7-0.3-1-0.4c-1.4-0.5-2.7-0.9-4-1
						c-1.3-0.2-2.4-0.1-3.5,0c-2.1,0.2-3.7,0.8-4.7,1.2c-0.5,0.2-0.9,0.4-1.2,0.5C11,100.7,10.9,100.7,10.9,100.7z"/>
				</g>
				<g>
					<g>
						<g>
							<path class="st0" d="M24,56.5c0.3-18.2,0.9-33.1,1.4-34.3c-0.4-0.5-3.3-0.9-6.7-0.9s-6.3,0.3-6.7,0.7
								c0.5,1.3,0.6,16.2,0.4,34.4c-0.3,18.2-0.9,33.1-1.4,34.3c0.4,0.5,3.3,0.9,6.7,0.9c3.4,0.1,6.3-0.3,6.7-0.7
								C23.9,89.6,23.7,74.7,24,56.5z M22.7,84.2c0,2.8-2.3,5.1-5.1,5.1h0c-2.7,0-4.9-2.4-4.9-5.2l0.4-27.6c0-2.8,2.3-5.1,5.1-5.1
								l0,0c2.7,0,4.9,2.4,4.9,5.2L22.7,84.2z M23.3,42.4c0,2.9-2.3,5.2-5.1,5.1c-2.7-0.1-4.9-2.6-4.8-5.4l0.2-13
								c0-2.8,2.2-5.3,5-5.3c2.8,0,5,2.4,5,5.2L23.3,42.4z"/>
						</g>
					</g>
					<g>
						<g>
							<path class="st0" d="M54.8,56.5c0.3-18.2,0.9-33.1,1.4-34.3c-0.4-0.5-3.3-0.9-6.7-0.9s-6.3,0.3-6.7,0.7
								c0.5,1.3,0.6,16.2,0.4,34.4c-0.3,18.2-0.9,33.1-1.4,34.3c0.4,0.5,3.3,0.9,6.7,0.9c3.4,0.1,6.3-0.3,6.7-0.7
								C54.7,89.6,54.5,74.7,54.8,56.5z M53.5,84.2c0,2.8-2.3,5.1-5.1,5.1h0c-2.7,0-4.9-2.4-4.9-5.2L44,56.5c0-2.8,2.3-5.1,5.1-5.1
								l0,0c2.7,0,4.9,2.4,4.9,5.2L53.5,84.2z M54.1,42.4c0,2.9-2.3,5.2-5.1,5.1c-2.7-0.1-4.9-2.6-4.8-5.4l0.2-13
								c0-2.8,2.2-5.3,5-5.3c2.8,0,5,2.4,5,5.2L54.1,42.4z"/>
						</g>
					</g>
					<g>
						<g>
							<path class="st0" d="M39.8,48.9c0.3-21.9,1-39.8,1.5-41.3c-0.5-0.6-3.5-1-7.2-1.1c-3.7-0.1-6.7,0.3-7.2,0.9
								c0.5,1.5,0.6,19.5,0.3,41.4c-0.3,21.9-1,39.9-1.6,41.4c0.5,0.6,3.5,1,7.2,1.1s6.7-0.3,7.2-0.9C39.6,88.8,39.5,70.9,39.8,48.9
								z M38.4,82.4c-0.1,3.4-2.5,6.2-5.4,6.1h0c-2.9,0-5.3-2.9-5.2-6.3l0.5-33.2c0.1-3.4,2.5-6.2,5.4-6.1h0c2.9,0,5.3,2.9,5.2,6.3
								L38.4,82.4z M39.1,32.1c-0.1,3.5-2.5,6.2-5.5,6.1c-2.9-0.1-5.2-3.1-5.1-6.5L28.7,16c0.1-3.4,2.4-6.3,5.3-6.3
								c3,0,5.4,2.8,5.3,6.3L39.1,32.1z"/>
						</g>
					</g>
				</g>
				<g>
					<path class="st1" d="M18.3,46.9c-2.7,0-4.9-2.1-4.9-4.7l0,0.8c0,2.5,2.2,4.6,4.9,4.7c2.7,0,5-2,5-4.5l0-0.8
						C23.3,44.9,21,47,18.3,46.9z"/>
					<path class="st1" d="M18.6,23.5c-2.7,0-5,2-5,4.5l0,0.8c0-2.5,2.3-4.6,5-4.5c2.7,0,4.9,2.1,4.9,4.7l0-0.8
						C23.6,25.6,21.4,23.5,18.6,23.5z"/>
					<path class="st1" d="M17.6,88.8c-2.7,0-4.9-2.1-4.9-4.7l0,0.8c0,2.5,2.2,4.6,4.9,4.7s5-2,5-4.5l0-0.8
						C22.7,86.8,20.4,88.8,17.6,88.8z"/>
					<path class="st1" d="M18.2,51.2c-2.7,0-5,2-5,4.5l0,0.8c0-2.5,2.3-4.6,5-4.5s4.9,2.1,4.9,4.7l0-0.8
						C23.1,53.3,20.9,51.2,18.2,51.2z"/>
					<path class="st1" d="M49.1,46.9c-2.7,0-4.9-2.1-4.9-4.7l0,0.8c0,2.5,2.2,4.6,4.9,4.7c2.7,0,5-2,5-4.5l0-0.8
						C54.1,44.9,51.8,47,49.1,46.9z"/>
					<path class="st1" d="M49.5,23.5c-2.7,0-5,2-5,4.5l0,0.8c0-2.5,2.3-4.6,5-4.5c2.7,0,4.9,2.1,4.9,4.7l0-0.8
						C54.4,25.6,52.2,23.5,49.5,23.5z"/>
					<path class="st1" d="M48.5,88.8c-2.7,0-4.9-2.1-4.9-4.7l0,0.8c0,2.5,2.2,4.6,4.9,4.7s5-2,5-4.5l0-0.8
						C53.5,86.8,51.2,88.8,48.5,88.8z"/>
					<path class="st1" d="M49,51.2c-2.7,0-5,2-5,4.5l0,0.8c0-2.5,2.3-4.6,5-4.5s4.9,2.1,4.9,4.7l0-0.8C53.9,53.3,51.7,51.2,49,51.2z
						"/>
					<path class="st1" d="M33.7,37.3c-2.9,0-5.3-2.5-5.2-5.4l0,0.9c0,2.9,2.3,5.4,5.2,5.4c2.9,0,5.4-2.3,5.4-5.2l0-0.9
						C39.1,35,36.7,37.3,33.7,37.3z"/>
					<path class="st1" d="M34.2,9.5c-2.9,0-5.4,2.3-5.4,5.2l0,0.9c0-2.9,2.5-5.3,5.4-5.2c2.9,0,5.3,2.5,5.2,5.4l0-0.9
						C39.4,12,37.1,9.6,34.2,9.5z"/>
				</g>
				<g>
					<path class="st1" d="M33,87.9c-2.9,0-5.3-2.5-5.2-5.4l0,0.9c0,2.9,2.3,5.4,5.2,5.4c2.9,0,5.4-2.3,5.4-5.2l0-0.9
						C38.3,85.6,35.9,88,33,87.9z"/>
					<path class="st1" d="M33.7,42.8c-2.9,0-5.4,2.3-5.4,5.2l0,0.9c0-2.9,2.5-5.3,5.4-5.2c2.9,0,5.3,2.5,5.2,5.4l0-0.9
						C39,45.3,36.6,42.9,33.7,42.8z"/>
				</g>
			</g>
		</g>
	</g>
	<g>
		<g>
			<g>
				<path class="st0" d="M76.7,57c0.8,1.4,1.3,2.9,1.3,4.7v17.2c0,0.3-0.1,0.6-0.2,0.9c-0.2,0.3-0.4,0.5-0.6,0.6
					c-0.3,0.2-0.6,0.2-0.9,0.2c-0.5,0-0.9-0.2-1.2-0.5c-0.3-0.3-0.4-0.5-0.5-0.9c0-0.1,0-0.2,0-0.3v-9.8H74c-0.8,0-1.5,0.1-2.3,0.3
					c-1,0.3-1.9,0.8-2.7,1.4c-1.3,1-2.2,2.3-2.7,3.8c-0.2,0.4-0.3,0.8-0.3,1.2l0,3.1c0,0.1,0,0.2,0,0.3c-0.1,0.4-0.3,0.7-0.6,1
					c-0.3,0.3-0.7,0.4-1.1,0.4c-0.5,0-0.9-0.2-1.3-0.5c-0.3-0.4-0.5-0.8-0.5-1.2V61.7c0-1.7,0.4-3.3,1.3-4.7
					c0.5-0.8,1.1-1.4,1.7-1.9c1-0.8,2.2-1.2,3.4-1.2h2.7c1.2,0,2.4,0.4,3.4,1.2C75.6,55.6,76.2,56.3,76.7,57z M74.4,61.8
					c0-1.2-0.4-2.2-1.2-3c-0.5-0.5-1.1-0.8-1.7-1c-0.4-0.2-0.9-0.2-1.3-0.2c-0.5,0-0.9,0.1-1.3,0.2c-0.9,0.3-1.6,0.8-2.1,1.5
					c-0.5,0.8-0.8,1.6-0.8,2.5v6.9c0.1-0.1,0.1-0.1,0.2-0.2c0.8-0.7,1.6-1.3,2.5-1.7c0.9-0.5,1.9-0.8,2.9-1.1c1-0.2,1.9-0.3,2.9-0.3
					V61.8z"/>
				<path class="st0" d="M95.3,63.1l-0.3,0v-1.3c0-0.2,0-0.3,0-0.5c-0.1-0.3-0.1-0.6-0.2-0.8c0-0.1,0-0.1,0-0.2
					c0-0.1-0.1-0.2-0.1-0.2c-0.2-0.4-0.4-0.8-0.6-1.1c-0.1-0.1-0.2-0.2-0.3-0.3c-0.2-0.2-0.4-0.4-0.6-0.5c-0.1,0-0.2-0.1-0.3-0.2
					C92.8,58,92.7,58,92.7,58c-0.2-0.1-0.4-0.2-0.6-0.3l-0.1,0l-0.1,0c-0.1,0-0.2,0-0.2,0c0,0-0.1,0-0.2,0c-0.1,0-0.2,0-0.3,0
					c-0.3,0-0.6,0-0.9,0c-0.1,0-0.2,0-0.3,0c-0.1,0-0.1,0-0.2,0l-0.2,0c-0.1,0-0.2,0.1-0.2,0.1c-0.2,0.1-0.4,0.1-0.5,0.2
					c-0.2,0.1-0.4,0.3-0.6,0.4c-0.2,0.1-0.3,0.2-0.5,0.4l-0.1,0.1c-0.1,0.1-0.1,0.1-0.2,0.2c-0.2,0.2-0.3,0.4-0.5,0.6
					c-0.1,0.2-0.2,0.4-0.3,0.6c-0.1,0.2-0.2,0.5-0.2,0.7c0,0.1-0.1,0.2-0.1,0.3v0.1c0,0.1,0,0.2,0,0.3v0.2c0,0.5,0.1,1,0.3,1.5
					c0.2,0.5,0.5,0.9,0.8,1.3s0.8,0.7,1.2,0.9c0.1,0.1,0.2,0.1,0.3,0.1c0,0,0.1,0,0.2,0c1-0.2,2-0.2,3,0c0,0,0.1,0,0.2,0h0.1
					c1.1,0.3,2.1,0.7,3,1.4l0.2,0.2c0.5,0.4,0.9,0.9,1.3,1.3c0,0.1,0.1,0.1,0.2,0.2c0,0,0.1,0.1,0.1,0.2l0,0.1
					c0.7,1.1,1.1,2.2,1.2,3.4c0,0,0,0.1,0,0.2v0.3c0,0.7-0.1,1.5-0.3,2.2c0,0.1,0,0.1-0.1,0.3c-0.2,0.8-0.5,1.5-1,2.2
					c-0.5,0.7-1,1.4-1.7,1.9c-1,0.8-2.2,1.2-3.4,1.2h-2.7c-1.2,0-2.3-0.4-3.3-1.1c0,0,0-0.1-0.1-0.1l0,0c-0.7-0.5-1.2-1.1-1.7-1.9
					c-0.2-0.3-0.4-0.7-0.5-1.1l0-0.2l0,0c0,0,0,0,0-0.1l0,0c0.5-1.4,1.2-2.6,2.2-3.7l0.6-0.6V73c0,0.5,0.1,1,0.3,1.4
					c0.2,0.5,0.5,1,0.8,1.3c0,0,0,0.1,0.1,0.1c0.5,0.5,1,0.8,1.7,1l0.2,0.1c0,0,0,0,0,0c0,0,0,0,0.1,0c0.2,0,0.2,0,0.3,0l0.3,0.1
					c0,0,0.1,0,0.1,0c0.3,0,0.6,0,0.9,0h0l0.3-0.1h0.2c0.1,0,0.1,0,0.2-0.1c0,0,0,0,0.1,0l0.1,0c0.8-0.3,1.5-0.8,2.1-1.4
					c0.5-0.7,0.8-1.5,0.9-2.3L94.9,73l0.1-0.1c0-0.3-0.1-0.7-0.2-1c-0.4-1.2-1.2-2-2.5-2.5h-0.1l-0.1,0c0,0,0,0-0.1,0
					c-0.9-0.3-1.8-0.3-2.7,0c0,0-0.1,0-0.2,0l-0.1,0H89c-0.3-0.1-0.7-0.2-1-0.3c-0.3-0.1-0.6-0.2-0.8-0.4c-0.4-0.2-0.8-0.5-1.2-0.8
					c-0.1,0-0.1-0.1-0.2-0.2c-0.6-0.6-1.2-1.2-1.6-1.8c-0.7-1.1-1.1-2.4-1.2-3.7v-0.6c0-0.3,0-0.5,0-0.8c0.1-1,0.3-1.9,0.7-2.8
					c0.2-0.4,0.3-0.7,0.5-1.1c0.5-0.8,1.1-1.4,1.7-1.9c0,0,0.1-0.1,0.1-0.1c1-0.7,2.1-1.1,3.3-1.1h2.7c1.2,0,2.4,0.4,3.4,1.2
					c0.7,0.5,1.2,1.1,1.7,1.9c0.8,1.2,1.2,2.7,1.3,4.2c0,0.1,0,0.2,0,0.4v0.1c0,0.1,0,0.2,0,0.3l0,0.2l-0.2,0.1
					C97.3,62.8,96.3,63,95.3,63.1z"/>
				<path class="st0" d="M104.1,54.4c0.3-0.3,0.8-0.5,1.2-0.5c0.5,0,0.9,0.2,1.2,0.5c0.3,0.3,0.5,0.8,0.5,1.2v23.2
					c0,0.5-0.2,0.9-0.5,1.2s-0.8,0.5-1.2,0.5c-0.5,0-0.9-0.2-1.2-0.5c-0.3-0.3-0.5-0.8-0.5-1.2V55.7
					C103.6,55.2,103.7,54.8,104.1,54.4z"/>
				<path class="st0" d="M126.4,57c0.8,1.4,1.3,2.9,1.3,4.7v17.2c0,0.3-0.1,0.6-0.2,0.9c-0.2,0.3-0.4,0.5-0.6,0.6
					c-0.3,0.2-0.6,0.2-0.9,0.2c-0.5,0-0.9-0.2-1.2-0.5c-0.3-0.3-0.4-0.5-0.5-0.9c0-0.1,0-0.2,0-0.3v-9.8h-0.5
					c-0.8,0-1.5,0.1-2.3,0.3c-1,0.3-1.9,0.8-2.7,1.4c-1.3,1-2.2,2.3-2.7,3.8c-0.2,0.4-0.3,0.8-0.3,1.2l0,3.1c0,0.1,0,0.2,0,0.3
					c-0.1,0.4-0.3,0.7-0.6,1c-0.3,0.3-0.7,0.4-1.1,0.4c-0.5,0-0.9-0.2-1.3-0.5c-0.3-0.4-0.5-0.8-0.5-1.2V61.7c0-1.7,0.4-3.3,1.3-4.7
					c0.5-0.8,1.1-1.4,1.7-1.9c1-0.8,2.2-1.2,3.4-1.2h2.7c1.2,0,2.4,0.4,3.4,1.2C125.3,55.6,125.9,56.3,126.4,57z M124.1,61.8
					c0-1.2-0.4-2.2-1.2-3c-0.5-0.5-1.1-0.8-1.7-1c-0.4-0.2-0.9-0.2-1.3-0.2c-0.5,0-0.9,0.1-1.3,0.2c-0.9,0.3-1.6,0.8-2.1,1.5
					c-0.5,0.8-0.8,1.6-0.8,2.5v6.9c0.1-0.1,0.1-0.1,0.2-0.2c0.8-0.7,1.6-1.3,2.5-1.7c0.9-0.5,1.9-0.8,2.9-1.1c1-0.2,1.9-0.3,2.9-0.3
					V61.8z"/>
				<path class="st0" d="M147.2,53.9c0,0,0.2,0.2,0.5,0.5c0.3,0.3,0.5,0.8,0.5,1.2v23.2c0,0.3-0.1,0.6-0.2,0.9s-0.4,0.5-0.6,0.6
					c-0.3,0.2-0.6,0.2-0.9,0.2h-1.1L138.6,67v0h0l-2.4-4.9v16.8c0,0.1,0,0.2,0,0.3c-0.1,0.4-0.3,0.7-0.6,1c-0.3,0.3-0.7,0.4-1.1,0.4
					c-0.5,0-0.9-0.2-1.2-0.5s-0.5-0.7-0.5-1.2V55.7c0-0.3,0-0.5,0.1-0.7c0.3-0.7,0.8-1.1,1.6-1.1h1.6l8.6,17.6V55.7
					c0-0.1,0-0.2,0-0.3c0.1-0.4,0.3-0.7,0.6-1c0.3-0.3,0.7-0.4,1.1-0.4C146.9,53.9,147.2,53.9,147.2,53.9z"/>
				<path class="st0" d="M167.5,57c0.8,1.4,1.3,2.9,1.3,4.7v17.2c0,0.3-0.1,0.6-0.2,0.9s-0.4,0.5-0.6,0.6c-0.3,0.2-0.6,0.2-0.9,0.2
					c-0.5,0-0.9-0.2-1.2-0.5c-0.3-0.3-0.4-0.5-0.5-0.9c0-0.1,0-0.2,0-0.3v-9.8h-0.5c-0.8,0-1.5,0.1-2.3,0.3c-1,0.3-1.9,0.8-2.7,1.4
					c-1.3,1-2.2,2.3-2.7,3.8c-0.2,0.4-0.3,0.8-0.3,1.2l0,3.1c0,0.1,0,0.2,0,0.3c-0.1,0.4-0.3,0.7-0.6,1c-0.3,0.3-0.7,0.4-1.1,0.4
					c-0.5,0-0.9-0.2-1.3-0.5c-0.3-0.4-0.5-0.8-0.5-1.2V61.7c0-1.7,0.4-3.3,1.3-4.7c0.5-0.8,1.1-1.4,1.7-1.9c1-0.8,2.2-1.2,3.4-1.2
					h2.7c1.2,0,2.4,0.4,3.4,1.2C166.5,55.6,167,56.3,167.5,57z M165.3,61.8c0-1.2-0.4-2.2-1.2-3c-0.5-0.5-1.1-0.8-1.7-1
					c-0.4-0.2-0.9-0.2-1.3-0.2c-0.5,0-0.9,0.1-1.3,0.2c-0.9,0.3-1.6,0.8-2.1,1.5c-0.5,0.8-0.8,1.6-0.8,2.5v6.9
					c0.1-0.1,0.1-0.1,0.2-0.2c0.8-0.7,1.6-1.3,2.5-1.7c0.9-0.5,1.9-0.8,2.9-1.1c1-0.2,1.9-0.3,2.9-0.3V61.8z"/>
			</g>
		</g>
	</g>
	<g>
		<g>
			<path class="st2" d="M62,86.8v-0.2c0.5,0,0.9,0,1.2,0c0.3,0,0.7,0,1.2,0v0.2c-0.4,0.1-0.7,0.1-0.7,0.1c-0.1,0-0.1,0.1-0.1,0.3
				l0,0.8v2.6h1.1c0.2,0,0.3,0,0.4,0c0.1,0,0.2-0.1,0.2-0.2c0.1-0.1,0.2-0.3,0.4-0.6H66c-0.1,0.4-0.3,0.8-0.4,1.2
				c-0.9,0-1.6,0-2.2,0c-0.5,0-1,0-1.5,0v-0.2c0.4-0.1,0.6-0.1,0.6-0.1c0,0,0.1-0.1,0.1-0.1c0-0.1,0-0.6,0-1.5l0-1.1v-0.2
				c0-0.3,0-0.5,0-0.6c0,0,0-0.1-0.1-0.1C62.5,86.9,62.3,86.9,62,86.8z"/>
			<path class="st2" d="M68.2,86.8v-0.2c0.5,0,0.9,0,1.2,0s0.7,0,1.1,0v0.2c-0.3,0-0.5,0.1-0.6,0.1c0,0-0.1,0-0.1,0.1
				c0,0.1,0,0.2,0,0.4V89c0,0.4,0,0.7,0.1,0.8c0.1,0.2,0.2,0.3,0.3,0.5c0.2,0.1,0.4,0.2,0.7,0.2c0.3,0,0.6-0.1,0.7-0.2
				c0.2-0.1,0.3-0.3,0.3-0.5s0.1-0.6,0.1-1.1c0-0.1,0-0.5,0-1c0-0.3,0-0.5,0-0.6c0,0,0-0.1-0.1-0.1c0,0-0.2-0.1-0.4-0.1
				c0,0-0.1,0-0.1,0v-0.2c0.4,0,0.7,0,0.9,0c0.2,0,0.5,0,0.8,0v0.2c-0.3,0.1-0.5,0.1-0.5,0.1c0,0-0.1,0.1-0.1,0.2c0,0.1,0,0.6,0,1.6
				c0,0.5,0,0.9,0,1c0,0.2-0.1,0.4-0.2,0.6c-0.1,0.1-0.2,0.3-0.3,0.4c-0.1,0.1-0.3,0.2-0.5,0.3C71.2,91,71,91,70.7,91
				c-0.5,0-0.8-0.1-1.1-0.2c-0.3-0.1-0.5-0.3-0.6-0.5c-0.1-0.2-0.2-0.5-0.2-0.9v-1.9c0-0.2,0-0.4,0-0.5c0,0-0.1-0.1-0.1-0.1
				C68.7,86.9,68.5,86.8,68.2,86.8z"/>
			<path class="st2" d="M75.6,86.8v-0.2c0.5,0,0.9,0,1.2,0c0.3,0,0.7,0,1.1,0v0.2c-0.2,0-0.4,0.1-0.4,0.1c0,0-0.1,0.1-0.1,0.1
				c0,0,0,0.1,0,0.1c0.1,0.1,0.3,0.5,0.7,1C78.7,87.4,79,87,79,87c0,0,0,0,0-0.1c0,0-0.2-0.1-0.5-0.1v-0.2c0.4,0,0.7,0,0.8,0
				c0.1,0,0.4,0,0.8,0v0.2c-0.2,0-0.3,0.1-0.4,0.1c-0.1,0-0.2,0.1-0.2,0.2c0,0-0.2,0.3-0.7,0.8c-0.2,0.3-0.4,0.5-0.5,0.6
				c0.3,0.5,0.6,1,1,1.6c0.1,0.2,0.2,0.3,0.3,0.4c0.1,0.1,0.3,0.1,0.5,0.2v0.2c-0.4,0-0.8,0-1.1,0c-0.3,0-0.7,0-1.1,0v-0.2
				c0.2,0,0.4-0.1,0.4-0.1c0,0,0-0.1,0-0.1c0,0,0-0.1,0-0.1c0,0-0.3-0.4-0.7-1.2c-0.2,0.3-0.5,0.6-0.9,1.1c-0.1,0.1-0.1,0.1-0.1,0.2
				c0,0,0,0.1,0,0.1c0,0,0.2,0.1,0.5,0.1v0.2c-0.4,0-0.7,0-0.9,0c-0.2,0-0.5,0-0.9,0v-0.2c0.2,0,0.4-0.1,0.4-0.1
				c0.1,0,0.2-0.1,0.3-0.2c0.2-0.2,0.6-0.7,1.2-1.5c-0.6-0.9-1-1.5-1.1-1.7c-0.1-0.1-0.2-0.2-0.3-0.2C76.1,86.9,75.9,86.9,75.6,86.8
				z"/>
			<path class="st2" d="M82.6,86.8v-0.2c0.5,0,0.9,0,1.2,0c0.3,0,0.7,0,1.1,0v0.2c-0.3,0-0.5,0.1-0.6,0.1c0,0-0.1,0-0.1,0.1
				c0,0.1,0,0.2,0,0.4V89c0,0.4,0,0.7,0.1,0.8c0.1,0.2,0.2,0.3,0.3,0.5c0.2,0.1,0.4,0.2,0.7,0.2c0.3,0,0.6-0.1,0.7-0.2
				c0.2-0.1,0.3-0.3,0.3-0.5s0.1-0.6,0.1-1.1c0-0.1,0-0.5,0-1c0-0.3,0-0.5,0-0.6c0,0,0-0.1-0.1-0.1c0,0-0.2-0.1-0.4-0.1
				c0,0-0.1,0-0.1,0v-0.2c0.4,0,0.7,0,0.9,0c0.2,0,0.5,0,0.8,0v0.2c-0.3,0.1-0.5,0.1-0.5,0.1c0,0-0.1,0.1-0.1,0.2c0,0.1,0,0.6,0,1.6
				c0,0.5,0,0.9,0,1c0,0.2-0.1,0.4-0.2,0.6c-0.1,0.1-0.2,0.3-0.3,0.4c-0.1,0.1-0.3,0.2-0.5,0.3C85.6,91,85.3,91,85.1,91
				c-0.5,0-0.8-0.1-1.1-0.2c-0.3-0.1-0.5-0.3-0.6-0.5c-0.1-0.2-0.2-0.5-0.2-0.9v-1.9c0-0.2,0-0.4,0-0.5c0,0-0.1-0.1-0.1-0.1
				C83.1,86.9,82.9,86.8,82.6,86.8z"/>
			<path class="st2" d="M89.8,86.8v-0.2c0.7,0,1.1,0,1.2,0c0.1,0,0.3,0,0.6,0c0.3,0,0.4,0,0.6,0c0.3,0,0.5,0,0.7,0.1
				c0.2,0.1,0.3,0.2,0.4,0.4c0.1,0.2,0.2,0.4,0.2,0.6c0,0.2,0,0.3-0.1,0.5c-0.1,0.2-0.2,0.3-0.3,0.4c-0.1,0.1-0.2,0.2-0.4,0.2
				c0.1,0.2,0.3,0.6,0.6,1c0.2,0.3,0.3,0.5,0.4,0.6c0.1,0.1,0.1,0.1,0.2,0.1c0.1,0,0.3,0.1,0.6,0.1v0.2c-0.3,0-0.6,0-0.8,0
				c-0.2,0-0.5,0-0.9,0c-0.2-0.6-0.6-1.2-1-2c-0.1,0-0.2,0-0.4,0l0,1.3c0,0.2,0,0.3,0,0.3c0,0,0.1,0.1,0.1,0.1c0,0,0.2,0.1,0.5,0.1
				v0.2c-0.5,0-0.9,0-1.1,0c-0.3,0-0.7,0-1.1,0v-0.2c0.3-0.1,0.5-0.1,0.6-0.1c0,0,0.1-0.1,0.1-0.2c0-0.1,0-0.6,0-1.6l0-0.9
				c0-0.4,0-0.7,0-0.8c0-0.1,0-0.1-0.1-0.1c0,0-0.2-0.1-0.4-0.1L89.8,86.8z M91.4,88.6c0.1,0,0.2,0,0.2,0c0.3,0,0.5-0.1,0.6-0.2
				c0.1-0.1,0.2-0.3,0.2-0.6c0-0.3-0.1-0.5-0.2-0.6c-0.1-0.1-0.3-0.2-0.5-0.2c-0.1,0-0.2,0-0.4,0L91.4,88.6z"/>
			<path class="st2" d="M96.2,86.8v-0.2l0.6,0c0.3,0,0.4,0,0.5,0c0.2,0,0.6,0,1.1,0v0.2c-0.2,0.1-0.4,0.1-0.4,0.1
				c0,0-0.1,0.1-0.1,0.1c0,0,0,0.1,0,0.1c0.1,0.1,0.2,0.3,0.4,0.6c0.2,0.3,0.3,0.6,0.5,0.9l0.9-1.6c0,0,0-0.1,0-0.1c0,0,0-0.1,0-0.1
				c0,0-0.2-0.1-0.4-0.1v-0.2l0.2,0c0.3,0,0.6,0,0.7,0c0.1,0,0.4,0,0.8,0v0.2c-0.3,0.1-0.4,0.1-0.5,0.2c-0.1,0.1-0.2,0.1-0.3,0.3
				c-0.1,0.1-0.4,0.7-1.1,1.8v1.1c0,0.2,0,0.3,0,0.3c0,0,0.1,0.1,0.1,0.1c0,0,0.2,0,0.4,0.1l0.1,0v0.2c-0.6,0-0.9,0-1.1,0
				c-0.1,0-0.5,0-1.2,0v-0.2c0.1,0,0.1,0,0.1,0c0.2,0,0.4-0.1,0.4-0.1c0,0,0.1-0.1,0.1-0.1c0-0.1,0-0.2,0-0.5v-0.9
				c-0.1-0.2-0.3-0.5-0.6-1c-0.3-0.6-0.6-0.9-0.6-1c-0.1-0.1-0.1-0.2-0.2-0.2C96.6,86.9,96.5,86.8,96.2,86.8z"/>
			<path class="st2" d="M107.1,86.8v-0.2c0.7,0,1.1,0,1.2,0c0.1,0,0.3,0,0.6,0c0.3,0,0.4,0,0.6,0c0.3,0,0.5,0,0.7,0.1
				c0.2,0.1,0.3,0.2,0.4,0.4c0.1,0.2,0.2,0.4,0.2,0.6c0,0.2,0,0.3-0.1,0.5c-0.1,0.2-0.2,0.3-0.3,0.4c-0.1,0.1-0.2,0.2-0.4,0.2
				c0.1,0.2,0.3,0.6,0.6,1c0.2,0.3,0.3,0.5,0.4,0.6c0.1,0.1,0.1,0.1,0.2,0.1c0.1,0,0.3,0.1,0.6,0.1v0.2c-0.3,0-0.6,0-0.8,0
				c-0.2,0-0.5,0-0.9,0c-0.2-0.6-0.6-1.2-1-2c-0.1,0-0.2,0-0.4,0l0,1.3c0,0.2,0,0.3,0,0.3c0,0,0.1,0.1,0.1,0.1c0,0,0.2,0.1,0.5,0.1
				v0.2c-0.5,0-0.9,0-1.1,0c-0.3,0-0.7,0-1.1,0v-0.2c0.3-0.1,0.5-0.1,0.6-0.1c0,0,0.1-0.1,0.1-0.2c0-0.1,0-0.6,0-1.6l0-0.9
				c0-0.4,0-0.7,0-0.8c0-0.1,0-0.1-0.1-0.1c0,0-0.2-0.1-0.4-0.1L107.1,86.8z M108.7,88.6c0.1,0,0.2,0,0.2,0c0.3,0,0.5-0.1,0.6-0.2
				c0.1-0.1,0.2-0.3,0.2-0.6c0-0.3-0.1-0.5-0.2-0.6c-0.1-0.1-0.3-0.2-0.5-0.2c-0.1,0-0.2,0-0.4,0L108.7,88.6z"/>
			<path class="st2" d="M114,86.8v-0.2c0.5,0,1,0,1.6,0c0.7,0,1.4,0,2.1,0c0,0.4,0,0.8,0.1,1.1h-0.3c0-0.1,0-0.1-0.1-0.1
				c-0.1-0.3-0.2-0.5-0.2-0.5c-0.1,0-0.2-0.1-0.4-0.1h-1.2c0,0.3,0,0.8,0,1.5l0.5,0c0.3,0,0.5,0,0.5-0.1c0.1-0.1,0.1-0.2,0.2-0.5
				h0.3c0,0.3,0,0.6,0,0.8c0,0.2,0,0.5,0,0.8h-0.3c-0.1-0.3-0.1-0.5-0.2-0.6s-0.2-0.1-0.5-0.1h-0.6v1.7h1.2c0.1,0,0.2,0,0.3,0
				c0.1,0,0.1-0.1,0.2-0.1c0.1-0.1,0.3-0.4,0.4-0.7h0.3c-0.1,0.3-0.2,0.7-0.4,1.2c-0.7,0-1.4,0-2.2,0c-0.3,0-0.8,0-1.4,0v-0.2
				c0.3-0.1,0.5-0.1,0.6-0.1c0.1,0,0.1-0.2,0.1-0.4v-0.1l0-1.2v-1l0-0.5c0-0.2,0-0.4,0-0.4c0-0.1-0.1-0.1-0.1-0.1
				C114.4,86.9,114.3,86.8,114,86.8z"/>
			<path class="st2" d="M123.5,87.8h-0.3c-0.1-0.4-0.2-0.7-0.3-0.8c-0.1-0.1-0.3-0.2-0.6-0.2c-0.2,0-0.4,0.1-0.5,0.2
				c-0.1,0.1-0.2,0.2-0.2,0.4c0,0.2,0.1,0.3,0.2,0.4c0.1,0.1,0.4,0.3,0.8,0.5c0.4,0.2,0.7,0.4,0.9,0.6c0.2,0.2,0.2,0.5,0.2,0.8
				c0,0.4-0.1,0.7-0.4,1c-0.3,0.3-0.7,0.4-1.3,0.4c-0.2,0-0.4,0-0.6,0c-0.1,0-0.3-0.1-0.6-0.1c0-0.4,0.1-0.7,0.1-1.1v-0.2h0.3
				c0.1,0.4,0.2,0.7,0.3,0.8c0.2,0.2,0.4,0.3,0.6,0.3c0.2,0,0.4-0.1,0.5-0.2c0.1-0.1,0.2-0.3,0.2-0.5c0-0.1,0-0.2-0.1-0.3
				s-0.1-0.2-0.2-0.3c-0.1-0.1-0.3-0.2-0.6-0.3c-0.4-0.2-0.7-0.4-0.9-0.6c-0.1-0.2-0.2-0.4-0.2-0.7c0-0.4,0.1-0.7,0.4-0.9
				c0.3-0.2,0.7-0.4,1.2-0.4c0.3,0,0.7,0.1,1.1,0.2c0,0.3,0,0.5,0,0.7C123.4,87.5,123.5,87.6,123.5,87.8z"/>
			<path class="st2" d="M128.5,86.6v0.2l-0.1,0c-0.3,0-0.4,0.1-0.5,0.1c-0.1,0-0.1,0.1-0.1,0.3v0.1l0,1l0,1.2l0,0.6
				c0,0.2,0,0.3,0,0.3c0,0,0,0.1,0.1,0.1c0.1,0,0.2,0.1,0.5,0.1c0,0,0.1,0,0.1,0v0.2c-0.4,0-0.8,0-1.1,0c-0.3,0-0.7,0-1.2,0v-0.2
				c0.3-0.1,0.5-0.1,0.5-0.1c0,0,0.1,0,0.1-0.1c0,0,0-0.1,0-0.3c0-0.3,0-0.9,0-1.7l0-1.1v-0.1c0-0.2,0-0.3-0.1-0.3
				c0,0-0.2-0.1-0.5-0.1c0,0-0.1,0-0.1,0v-0.2c0.5,0,0.9,0,1.2,0C127.7,86.6,128,86.6,128.5,86.6z"/>
			<path class="st2" d="M130.9,86.8v-0.2c0.5,0,0.9,0,1.2,0c0.2,0,0.6,0,1,0c0.3,0,0.6,0,0.8,0c0.4,0,0.7,0,0.9,0.1
				c0.3,0.1,0.6,0.3,0.7,0.6c0.2,0.3,0.3,0.6,0.3,1.1c0,0.5-0.1,0.9-0.3,1.3c-0.2,0.4-0.6,0.7-1,0.9c-0.3,0.2-0.8,0.3-1.3,0.3
				c0,0-0.2,0-0.6,0c-0.3,0-0.5,0-0.6,0c-0.1,0-0.5,0-1.1,0v-0.2l0.1,0c0.3,0,0.4-0.1,0.5-0.1s0.1-0.1,0.1-0.2c0-0.1,0-0.7,0-1.9
				c0-0.8,0-1.3,0-1.4c0-0.1,0-0.1-0.1-0.2c0,0-0.2-0.1-0.5-0.1L130.9,86.8z M132.5,90.5c0.2,0,0.5,0.1,0.6,0.1
				c0.5,0,0.8-0.1,1.1-0.4c0.3-0.4,0.5-0.9,0.5-1.6c0-0.6-0.1-1-0.4-1.3c-0.2-0.2-0.6-0.4-1-0.4c-0.2,0-0.4,0-0.7,0.1
				c0,0.3,0,0.9,0,1.8C132.5,89.2,132.5,89.8,132.5,90.5z"/>
			<path class="st2" d="M138.3,86.8v-0.2c0.5,0,1,0,1.6,0c0.7,0,1.4,0,2.1,0c0,0.4,0,0.8,0.1,1.1h-0.3c0-0.1,0-0.1-0.1-0.1
				c-0.1-0.3-0.2-0.5-0.2-0.5s-0.2-0.1-0.4-0.1h-1.2c0,0.3,0,0.8,0,1.5l0.5,0c0.3,0,0.5,0,0.5-0.1c0.1-0.1,0.1-0.2,0.2-0.5h0.3
				c0,0.3,0,0.6,0,0.8c0,0.2,0,0.5,0,0.8h-0.3c-0.1-0.3-0.1-0.5-0.2-0.6c-0.1,0-0.2-0.1-0.5-0.1h-0.6v1.7h1.2c0.1,0,0.2,0,0.3,0
				c0.1,0,0.1-0.1,0.2-0.1c0.1-0.1,0.3-0.4,0.4-0.7h0.3c-0.1,0.3-0.2,0.7-0.4,1.2c-0.7,0-1.4,0-2.2,0c-0.3,0-0.8,0-1.4,0v-0.2
				c0.3-0.1,0.5-0.1,0.6-0.1c0.1,0,0.1-0.2,0.1-0.4v-0.1l0-1.2v-1l0-0.5c0-0.2,0-0.4,0-0.4c0-0.1-0.1-0.1-0.1-0.1
				C138.8,86.9,138.6,86.8,138.3,86.8z"/>
			<path class="st2" d="M144.7,86.8v-0.2c0.3,0,0.5,0,0.8,0c0.2,0,0.5,0,0.9,0c0.2,0.3,1,1.3,2.3,2.8l0-1.7c0-0.4,0-0.6,0-0.7
				c0,0-0.1-0.1-0.1-0.1c0,0-0.2-0.1-0.5-0.1v-0.2c0.3,0,0.6,0,0.9,0c0.2,0,0.5,0,0.9,0v0.2c-0.1,0-0.1,0-0.1,0
				c-0.2,0-0.4,0.1-0.4,0.1c0,0-0.1,0.1-0.1,0.3c0,0.3,0,0.9,0,1.8c0,0.6,0,1.2,0,2c-0.1,0-0.2,0.1-0.3,0.1l-1.2-1.5l-1.8-2.2l0,1.5
				l0,1.4c0,0.1,0,0.2,0,0.2c0,0,0,0,0.1,0.1c0,0,0.2,0.1,0.4,0.1c0,0,0.1,0,0.1,0v0.2c-0.4,0-0.6,0-0.8,0c-0.2,0-0.5,0-0.9,0v-0.2
				c0.1,0,0.1,0,0.1,0c0.2,0,0.4-0.1,0.4-0.1c0,0,0-0.1,0.1-0.1c0,0,0-0.3,0-0.9c0-0.8,0-1.5,0-2.1c0-0.2,0-0.3,0-0.4
				c0-0.1-0.1-0.1-0.1-0.1c-0.1,0-0.2-0.1-0.4-0.1C144.8,86.8,144.8,86.8,144.7,86.8z"/>
			<path class="st2" d="M156.3,90.1l0.2,0.3c-0.4,0.2-0.7,0.4-1,0.5c-0.3,0.1-0.6,0.1-0.9,0.1c-0.7,0-1.2-0.2-1.6-0.6
				c-0.4-0.4-0.6-0.9-0.6-1.6c0-0.7,0.2-1.3,0.7-1.7c0.4-0.4,1.1-0.6,1.9-0.6c0.3,0,0.5,0,0.7,0.1c0.2,0,0.5,0.1,0.9,0.2
				c0,0.1,0,0.3,0,0.4c0,0.2,0,0.6,0,0.9h-0.3c-0.1-0.4-0.2-0.6-0.2-0.7c-0.1-0.2-0.2-0.3-0.4-0.4c-0.2-0.1-0.4-0.2-0.7-0.2
				c-0.4,0-0.8,0.1-1,0.4c-0.3,0.3-0.4,0.8-0.4,1.4c0,0.6,0.1,1.1,0.4,1.4c0.3,0.3,0.7,0.5,1.2,0.5
				C155.4,90.5,155.8,90.3,156.3,90.1z"/>
			<path class="st2" d="M159.1,86.8v-0.2c0.5,0,1,0,1.6,0c0.7,0,1.4,0,2.1,0c0,0.4,0,0.8,0.1,1.1h-0.3c0-0.1,0-0.1-0.1-0.1
				c-0.1-0.3-0.2-0.5-0.2-0.5s-0.2-0.1-0.4-0.1h-1.2c0,0.3,0,0.8,0,1.5l0.5,0c0.3,0,0.5,0,0.5-0.1c0.1-0.1,0.1-0.2,0.2-0.5h0.3
				c0,0.3,0,0.6,0,0.8c0,0.2,0,0.5,0,0.8H162c-0.1-0.3-0.1-0.5-0.2-0.6s-0.2-0.1-0.5-0.1h-0.6v1.7h1.2c0.1,0,0.2,0,0.3,0
				c0.1,0,0.1-0.1,0.2-0.1c0.1-0.1,0.3-0.4,0.4-0.7h0.3c-0.1,0.3-0.2,0.7-0.4,1.2c-0.7,0-1.4,0-2.2,0c-0.3,0-0.8,0-1.4,0v-0.2
				c0.3-0.1,0.5-0.1,0.6-0.1c0.1,0,0.1-0.2,0.1-0.4v-0.1l0-1.2v-1l0-0.5c0-0.2,0-0.4,0-0.4c0-0.1-0.1-0.1-0.1-0.1
				C159.6,86.9,159.4,86.8,159.1,86.8z"/>
			<path class="st2" d="M168.6,87.8h-0.3c-0.1-0.4-0.2-0.7-0.3-0.8c-0.1-0.1-0.3-0.2-0.6-0.2c-0.2,0-0.4,0.1-0.5,0.2
				c-0.1,0.1-0.2,0.2-0.2,0.4c0,0.2,0.1,0.3,0.2,0.4c0.1,0.1,0.4,0.3,0.8,0.5c0.4,0.2,0.7,0.4,0.9,0.6c0.2,0.2,0.2,0.5,0.2,0.8
				c0,0.4-0.1,0.7-0.4,1c-0.3,0.3-0.7,0.4-1.3,0.4c-0.2,0-0.4,0-0.6,0c-0.1,0-0.3-0.1-0.6-0.1c0-0.4,0.1-0.7,0.1-1.1v-0.2h0.3
				c0.1,0.4,0.2,0.7,0.3,0.8c0.2,0.2,0.4,0.3,0.6,0.3c0.2,0,0.4-0.1,0.5-0.2c0.1-0.1,0.2-0.3,0.2-0.5c0-0.1,0-0.2-0.1-0.3
				c-0.1-0.1-0.1-0.2-0.2-0.3c-0.1-0.1-0.3-0.2-0.6-0.3c-0.4-0.2-0.7-0.4-0.9-0.6c-0.1-0.2-0.2-0.4-0.2-0.7c0-0.4,0.1-0.7,0.4-0.9
				c0.3-0.2,0.7-0.4,1.2-0.4c0.3,0,0.7,0.1,1.1,0.2c0,0.3,0,0.5,0,0.7C168.6,87.5,168.6,87.6,168.6,87.8z"/>
		</g>
	</g>
</g>
</svg>
