<?xml version="1.0" encoding="utf-8"?>
<!-- Generator: Adobe Illustrator 23.1.0, SVG Export Plug-In . SVG Version: 6.00 Build 0)  -->
<svg version="1.1" id="Layer_1" xmlns="http://www.w3.org/2000/svg" xmlns:xlink="http://www.w3.org/1999/xlink" x="0px" y="0px"
	 viewBox="0 0 178.1 82.9" style="enable-background:new 0 0 178.1 82.9;" xml:space="preserve">
<style type="text/css">
	.st0{opacity:0.87;fill:url(#SVGID_1_);}
	.st1{opacity:0.87;fill:url(#SVGID_2_);}
	.st2{opacity:0.87;fill:url(#SVGID_3_);}
	.st3{opacity:0.87;fill:url(#SVGID_4_);}
</style>
<radialGradient id="SVGID_1_" cx="91.5447" cy="65.0383" r="60.5109" gradientTransform="matrix(1 0 0 0.6852 0 -0.8419)" gradientUnits="userSpaceOnUse">
	<stop  offset="0" style="stop-color:#00366A"/>
	<stop  offset="0.1413" style="stop-color:#0B4879;stop-opacity:0.8587"/>
	<stop  offset="0.4261" style="stop-color:#2778A1;stop-opacity:0.5739"/>
	<stop  offset="0.8247" style="stop-color:#55C4E1;stop-opacity:0.1753"/>
	<stop  offset="1" style="stop-color:#6AE8FF;stop-opacity:0"/>
</radialGradient>
<path class="st0" d="M155.2,48.1c0,24.1-28.5,34.9-63.6,34.9S27.9,72.2,27.9,48.1S56.4,4.5,91.5,4.5S155.2,24,155.2,48.1z"/>
<radialGradient id="SVGID_2_" cx="114.8664" cy="33.8209" r="59.4942" gradientTransform="matrix(1 0 0 0.5794 0 23.3226)" gradientUnits="userSpaceOnUse">
	<stop  offset="0" style="stop-color:#00366A"/>
	<stop  offset="0.1318" style="stop-color:#033B6E;stop-opacity:0.8682"/>
	<stop  offset="0.2831" style="stop-color:#0B497A;stop-opacity:0.7169"/>
	<stop  offset="0.4439" style="stop-color:#19608D;stop-opacity:0.5561"/>
	<stop  offset="0.6114" style="stop-color:#2C80A8;stop-opacity:0.3886"/>
	<stop  offset="0.7841" style="stop-color:#45A9CA;stop-opacity:0.2159"/>
	<stop  offset="0.9588" style="stop-color:#62DBF4;stop-opacity:4.120040e-02"/>
	<stop  offset="1" style="stop-color:#6AE8FF;stop-opacity:0"/>
</radialGradient>
<path class="st1" d="M178.5,47.9c0,20.4-36.9,27-72.1,27s-55.2-6.6-55.2-27S79.7,11,114.9,11S178.5,27.5,178.5,47.9z"/>
<radialGradient id="SVGID_3_" cx="85.8381" cy="30.7674" r="58.104" gradientTransform="matrix(1 0 0 0.5794 0 23.3226)" gradientUnits="userSpaceOnUse">
	<stop  offset="0" style="stop-color:#00366A"/>
	<stop  offset="0.1318" style="stop-color:#033B6E;stop-opacity:0.8682"/>
	<stop  offset="0.2831" style="stop-color:#0B497A;stop-opacity:0.7169"/>
	<stop  offset="0.4439" style="stop-color:#19608D;stop-opacity:0.5561"/>
	<stop  offset="0.6114" style="stop-color:#2C80A8;stop-opacity:0.3886"/>
	<stop  offset="0.7841" style="stop-color:#45A9CA;stop-opacity:0.2159"/>
	<stop  offset="0.9588" style="stop-color:#62DBF4;stop-opacity:4.120040e-02"/>
	<stop  offset="1" style="stop-color:#6AE8FF;stop-opacity:0"/>
</radialGradient>
<path class="st2" d="M149.5,47.9c0,20.4-13.4,23.4-48.5,23.4s-78.7-3.1-78.7-23.4S50.7,11,85.8,11S149.5,27.5,149.5,47.9z"/>
<radialGradient id="SVGID_4_" cx="51.2528" cy="49.6078" r="60.1535" gradientTransform="matrix(0.925 0 0 0.6186 8.6106 9.1937)" gradientUnits="userSpaceOnUse">
	<stop  offset="0" style="stop-color:#00366A"/>
	<stop  offset="0.1157" style="stop-color:#074274;stop-opacity:0.8843"/>
	<stop  offset="0.323" style="stop-color:#19618E;stop-opacity:0.677"/>
	<stop  offset="0.5977" style="stop-color:#3793B8;stop-opacity:0.4023"/>
	<stop  offset="0.9263" style="stop-color:#60D8F1;stop-opacity:7.371122e-02"/>
	<stop  offset="1" style="stop-color:#6AE8FF;stop-opacity:0"/>
</radialGradient>
<path class="st3" d="M114.9,44.3c0,21.7-7.4,30.5-39.9,30.5S-2.8,66-2.8,44.3S23.5,4.9,56,4.9S114.9,22.6,114.9,44.3z"/>
</svg>
