<?xml version="1.0" encoding="utf-8"?>
<!-- Generator: Adobe Illustrator 23.1.0, SVG Export Plug-In . SVG Version: 6.00 Build 0)  -->
<svg version="1.1" id="Layer_1" xmlns="http://www.w3.org/2000/svg" xmlns:xlink="http://www.w3.org/1999/xlink" x="0px" y="0px"
	 viewBox="0 0 122.9 73.1" style="enable-background:new 0 0 122.9 73.1;" xml:space="preserve">
<style type="text/css">
	.st0{enable-background:new    ;}
	.st1{fill:#FFFFFF;}
</style>
<title>Asset 4</title>
<g class="st0">
	
		<image style="overflow:visible;opacity:0.5;" width="134" height="71" xlink:href="13195D48.png"  transform="matrix(1 0 0 1 -5 -2.3742)">
	</image>
	<g>
		<g>
			<path class="st1" d="M17.2,15.4h-5.8V60H5.7V15.4H0V9.8h17.2V15.4z"/>
			<path class="st1" d="M24.2,60h-5.7V9.8h5.7V60z"/>
			<path class="st1" d="M46.8,60h-5.6l-8.6-28.4V60h-5.3V9.8H33l8.6,31v-31h5.3V60z"/>
			<path class="st1" d="M78.7,15.4h-5.8V60h-5.7V15.4h-5.7V9.8h17.2V15.4z"/>
			<path class="st1" d="M99.6,17.6v33.5c0,1.3-0.3,2.6-0.8,3.8s-1.2,2.2-2.1,3.1c-0.9,0.9-1.9,1.6-3.1,2.1s-2.5,0.8-3.8,0.8
				c-1.4,0-2.6-0.3-3.8-0.8s-2.2-1.2-3.1-2.1c-0.9-0.9-1.6-1.9-2.1-3.1S80,52.4,80,51.1V9.8h5.7v41.3c0,1.2,0.4,2.1,1.2,2.9
				s1.8,1.2,2.9,1.2c1.1,0,2.1-0.4,2.9-1.2s1.2-1.8,1.2-2.9V9.8h3.2l0.1-1.5h5L99.6,17.6z M89.9,7.8h-2l2.9-5.1h3.5L89.9,7.8z"/>
			<path class="st1" d="M121.9,51.1c0,1.3-0.3,2.6-0.8,3.8s-1.2,2.2-2.1,3.1s-1.9,1.6-3.1,2.1c-1.2,0.5-2.5,0.8-3.8,0.8
				c-1.4,0-2.6-0.3-3.8-0.8c-1.2-0.5-2.2-1.2-3.1-2.1s-1.6-1.9-2.1-3.1s-0.8-2.5-0.8-3.8V18.7c0-1.4,0.3-2.6,0.8-3.8
				c0.5-1.2,1.2-2.2,2.1-3.1c0.9-0.9,1.9-1.6,3.1-2.1c1.2-0.5,2.5-0.8,3.8-0.8c1.3,0,2.6,0.3,3.8,0.8c1.2,0.5,2.2,1.2,3.1,2.1
				c0.9,0.9,1.6,1.9,2.1,3.1c0.5,1.2,0.8,2.5,0.8,3.8v1.6h-5.6v-1.6c0-1.2-0.4-2.2-1.2-2.9c-0.8-0.8-1.8-1.2-2.9-1.2
				c-1.2,0-2.1,0.4-2.9,1.2c-0.8,0.8-1.2,1.8-1.2,2.9v32.4c0,1.2,0.4,2.1,1.2,2.9s1.8,1.2,2.9,1.2c1.1,0,2.1-0.4,2.9-1.2
				s1.2-1.8,1.2-2.9v-0.6l5.6-1.9V51.1z"/>
		</g>
	</g>
</g>
</svg>
