<?xml version="1.0" encoding="utf-8"?>
<!-- Generator: Adobe Illustrator 24.0.2, SVG Export Plug-In . SVG Version: 6.00 Build 0)  -->
<svg version="1.1" id="Layer_1" xmlns="http://www.w3.org/2000/svg" xmlns:xlink="http://www.w3.org/1999/xlink" x="0px" y="0px"
	 viewBox="0 0 1200 889.1" style="enable-background:new 0 0 1200 889.1;" xml:space="preserve">
<style type="text/css">
	.st0{fill:url(#SVGID_1_);}
	.st1{fill:url(#SVGID_2_);}
	.st2{fill:#0C6D3B;}
	.st3{fill:#FFFFFF;stroke:#FFFFFF;stroke-width:0.1518;stroke-miterlimit:10;}
	.st4{fill:#FFFFFF;stroke:#FFFFFF;stroke-width:5.669546e-02;stroke-miterlimit:10;}
	.st5{fill:#A47752;}
	.st6{fill:#231F20;stroke:#231F20;stroke-width:9.457578e-02;stroke-miterlimit:10;}
	.st7{fill:url(#SVGID_3_);}
	.st8{fill:url(#SVGID_4_);}
	.st9{fill:url(#SVGID_5_);}
	.st10{fill:url(#SVGID_6_);}
	.st11{fill:url(#SVGID_7_);}
	.st12{fill:url(#SVGID_8_);}
	.st13{fill:url(#SVGID_9_);}
	.st14{fill:url(#SVGID_10_);}
	.st15{fill:url(#SVGID_11_);}
	.st16{fill:url(#SVGID_12_);}
	.st17{fill:url(#SVGID_13_);}
	.st18{fill:url(#SVGID_14_);}
	.st19{fill:url(#SVGID_15_);}
	.st20{fill:url(#SVGID_16_);}
	.st21{fill:url(#SVGID_17_);}
	.st22{fill:url(#SVGID_18_);}
	.st23{fill:url(#SVGID_19_);}
	.st24{fill:url(#SVGID_20_);}
	.st25{fill:url(#SVGID_21_);}
	.st26{fill:url(#SVGID_22_);}
	.st27{fill:url(#SVGID_23_);}
	.st28{fill:url(#SVGID_24_);}
	.st29{fill:url(#SVGID_25_);}
	.st30{fill:url(#SVGID_26_);}
	.st31{fill:url(#SVGID_27_);}
	.st32{fill:url(#SVGID_28_);}
	.st33{fill:url(#SVGID_29_);}
</style>
<g>
	<g>
		<g>
			<g>
				<g>
					
						<radialGradient id="SVGID_1_" cx="727.0328" cy="252.8932" r="45.7982" gradientTransform="matrix(1.015 0 0 1.0169 -49.5314 -0.337)" gradientUnits="userSpaceOnUse">
						<stop  offset="0" style="stop-color:#F4F5F5"/>
						<stop  offset="0.3377" style="stop-color:#F1F2F2"/>
						<stop  offset="0.5396" style="stop-color:#E9EAEB"/>
						<stop  offset="0.7056" style="stop-color:#DBDEDF"/>
						<stop  offset="0.8522" style="stop-color:#C8CCCF"/>
						<stop  offset="0.9847" style="stop-color:#B2B8BC"/>
						<stop  offset="1" style="stop-color:#AFB6BA"/>
					</radialGradient>
					<path class="st0" d="M680.9,303.3c-1.6,0-2.4-2.1-4.2-7.2c-1.1-3.1-2.7-7.3-5-12.6c-1.9-4.4-4.5-8.5-7-12.5
						c-4.2-6.6-8.1-12.9-8.9-20.2c-0.8-7,1.4-13.7,6-18.9c4.8-5.4,11.7-8.4,19.1-8.4c7.3,0,14.3,3.1,19.1,8.4
						c4.6,5.2,6.8,11.9,6,18.9c-0.8,7.3-4.7,13.6-8.9,20.2c-2.5,4-5,8-7,12.5c-2.3,5.3-3.9,9.5-5,12.6
						C683.3,301.2,682.5,303.3,680.9,303.3z"/>
					<linearGradient id="SVGID_2_" gradientUnits="userSpaceOnUse" x1="656.3586" y1="263.4447" x2="705.4439" y2="263.4447">
						<stop  offset="0" style="stop-color:#F4F5F5"/>
						<stop  offset="9.562187e-02" style="stop-color:#EFF0F0"/>
						<stop  offset="0.2027" style="stop-color:#E2E4E5"/>
						<stop  offset="0.3154" style="stop-color:#CDD0D2"/>
						<stop  offset="0.4312" style="stop-color:#B1B8BC"/>
						<stop  offset="0.4413" style="stop-color:#AFB6BA"/>
					</linearGradient>
					<path class="st1" d="M680.9,224.2c-14.3,0-26,11.9-24.4,26.5c1.3,11.5,10.7,20.7,15.8,32.5c5.6,12.9,6.7,19.4,8.6,19.4
						c1.9,0,2.9-6.5,8.6-19.4c5.1-11.8,14.5-20.9,15.8-32.5C706.9,236.1,695.2,224.2,680.9,224.2z"/>
				</g>
				<g>
					<path class="st2" d="M680.9,300.5c-1.5,0-2.2-2-4-6.8c-1.1-2.9-2.5-6.9-4.7-11.8c-1.8-4.1-4.2-8-6.6-11.7
						c-3.9-6.2-7.6-12.1-8.4-19c-0.7-6.6,1.3-12.8,5.7-17.7c4.5-5,11.1-7.9,18-7.9c6.9,0,13.5,2.9,18.1,7.9
						c4.4,4.9,6.4,11.1,5.7,17.7c-0.8,6.9-4.5,12.7-8.4,19c-2.3,3.7-4.8,7.5-6.6,11.7c-2.2,4.9-3.6,8.9-4.7,11.8
						C683.1,298.5,682.4,300.5,680.9,300.5z"/>
				</g>
			</g>
		</g>
		<g>
			<g>
				<g>
					<g>
						<path class="st3" d="M665.5,251.9c0.2,0,0.4,0,0.6,0c0.2,0,0.4,0,0.6,0.1c0.2,0,0.5,0.1,0.7,0.2c0.2,0.1,0.4,0.3,0.6,0.5
							c0.2,0.2,0.3,0.4,0.4,0.7c0.1,0.3,0.1,0.7,0.1,1.1s-0.1,0.8-0.2,1.2c-0.1,0.3-0.3,0.6-0.6,0.8c-0.5,0.4-1,0.5-1.7,0.5
							c-0.2,0-0.5,0-0.7,0h-0.4v-5H665.5z M665.5,256.9c0.1,0,0.2,0,0.4,0c0.2,0,0.3,0,0.3,0c0.1,0,0.2,0,0.3-0.1
							c0.1,0,0.3-0.1,0.4-0.1c0.1-0.1,0.2-0.2,0.4-0.3c0.1-0.1,0.2-0.3,0.3-0.4c0.2-0.4,0.3-0.9,0.3-1.5c0-0.5-0.1-0.8-0.2-1.2
							c-0.1-0.3-0.2-0.6-0.4-0.7c-0.1-0.2-0.3-0.3-0.5-0.4c-0.2-0.1-0.4-0.1-0.5-0.2c-0.1,0-0.3,0-0.4,0c-0.2,0-0.3,0-0.5,0V256.9z"
							/>
						<path class="st3" d="M669.9,252L669.9,252l1.3-0.1v0.1h-0.4v4.9h0.4v0.1h-1.3v-0.1h0.3V252H669.9z"/>
						<path class="st3" d="M672.7,257L672.7,257l2.1-5l0.1,0l1.8,5.1H676l-0.6-1.6h-2.1L672.7,257z M674.5,252.7l-1.1,2.6h2
							L674.5,252.7z"/>
						<path class="st3" d="M678.1,257L678.1,257l0.5-5h0.2l1.5,4.7l1.5-4.7h0.2l0.6,5h-0.6l-0.5-4l-1.3,4h-0.5l-1.3-4L678.1,257z"/>
						<path class="st3" d="M684.2,254.6c0-0.9,0.2-1.5,0.6-2c0.4-0.5,1-0.7,1.6-0.7c0.7,0,1.2,0.2,1.6,0.6c0.4,0.4,0.6,1,0.6,1.9
							c0,0.9-0.2,1.5-0.6,2c-0.4,0.4-1,0.7-1.7,0.7c-0.6,0-1.1-0.2-1.5-0.5c-0.2-0.2-0.4-0.4-0.5-0.8
							C684.2,255.4,684.2,255,684.2,254.6z M686.4,252c-0.5,0-0.9,0.2-1.2,0.6c-0.3,0.4-0.5,1.1-0.5,1.9c0,0.8,0.1,1.4,0.4,1.8
							c0.3,0.4,0.7,0.6,1.2,0.6c0.5,0,0.9-0.2,1.2-0.7c0.3-0.4,0.5-1.1,0.5-1.9c0-0.8-0.1-1.4-0.4-1.8
							C687.3,252.2,686.9,252,686.4,252z"/>
						<path class="st3" d="M690.2,257L690.2,257l-0.1-5h0.2l3,4.7v-4.7h0.1v5h-0.5l-2.7-4.2V257z"/>
						<path class="st3" d="M695.7,251.9c0.2,0,0.4,0,0.6,0c0.2,0,0.4,0,0.6,0.1c0.2,0,0.5,0.1,0.7,0.2c0.2,0.1,0.4,0.3,0.6,0.5
							c0.2,0.2,0.3,0.4,0.4,0.7c0.1,0.3,0.1,0.7,0.1,1.1s-0.1,0.8-0.2,1.2c-0.1,0.3-0.3,0.6-0.6,0.8c-0.5,0.4-1,0.5-1.7,0.5
							c-0.2,0-0.5,0-0.7,0h-0.4v-5H695.7z M695.7,256.9c0.1,0,0.2,0,0.4,0c0.2,0,0.3,0,0.3,0c0.1,0,0.2,0,0.3-0.1
							c0.1,0,0.3-0.1,0.4-0.1c0.1-0.1,0.2-0.2,0.4-0.3c0.1-0.1,0.2-0.3,0.3-0.4c0.2-0.4,0.3-0.9,0.3-1.5c0-0.5-0.1-0.8-0.2-1.2
							c-0.1-0.3-0.2-0.6-0.4-0.7c-0.1-0.2-0.3-0.3-0.5-0.4c-0.2-0.1-0.4-0.1-0.5-0.2c-0.1,0-0.3,0-0.4,0c-0.2,0-0.3,0-0.5,0V256.9z"
							/>
					</g>
					<g>
						<g>
							<path class="st4" d="M675.2,261.1c-0.4,0-0.6-0.1-0.8-0.3c-0.1-0.1-0.1-0.2-0.1-0.3c0-0.1-0.1-0.3-0.1-0.4s0-0.3,0.1-0.5
								c0.1-0.1,0.1-0.2,0.2-0.3c0.2-0.1,0.4-0.2,0.7-0.2c0.1,0,0.1,0,0.2,0s0.1,0,0.2,0l0.1,0l0,0c-0.1-0.1-0.3-0.1-0.4-0.1
								c-0.2,0-0.4,0.1-0.5,0.2c-0.1,0.1-0.2,0.2-0.2,0.4c0,0.1,0,0.2,0,0.4c0,0.2,0,0.3,0.1,0.4c0,0.1,0.1,0.2,0.1,0.3
								c0.1,0.1,0.1,0.1,0.2,0.1c0.1,0,0.1,0.1,0.2,0.1C675.1,261,675.1,261,675.2,261.1c0.1,0,0.2,0,0.3,0c0.1,0,0.1,0,0.2,0l0.1,0
								l0,0C675.5,261,675.4,261.1,675.2,261.1z"/>
							<path class="st4" d="M677.8,259.1L677.8,259.1l-0.9,0v0.9h0.8v0h-0.8v1.1h1v0h-1.2v-2H677.8z"/>
							<path class="st4" d="M678.9,261.1L678.9,261.1l0-2h0.1l1.2,1.8v-1.8h0v2H680l-1.1-1.7V261.1z"/>
							<path class="st4" d="M681.9,261.1h-0.2v-2h-0.5v0h1.2v0h-0.5V261.1z"/>
							<path class="st4" d="M683.4,259.1c0.2,0,0.4,0,0.6,0c0.5,0,0.7,0.2,0.7,0.5c0,0.1,0,0.3-0.1,0.4c-0.1,0.1-0.2,0.2-0.3,0.2
								l0.6,1h-0.3l-0.6-0.9h-0.4v0.9h-0.2V259.1z M684,259.1c-0.1,0-0.2,0-0.3,0v1h0.4c0.3,0,0.4-0.2,0.4-0.5c0-0.1,0-0.3-0.1-0.3
								C684.3,259.1,684.2,259.1,684,259.1z"/>
							<path class="st4" d="M685.8,261.1L685.8,261.1l0.8-2l0,0l0.7,2h-0.2l-0.2-0.6H686L685.8,261.1z M686.5,259.4l-0.4,1h0.8
								L686.5,259.4z"/>
							<path class="st4" d="M689.4,261.1h-1.1v-2h0.2v2L689.4,261.1L689.4,261.1z"/>
						</g>
					</g>
					<rect x="662.7" y="259.8" class="st5" width="9.6" height="0.3"/>
					<rect x="690.7" y="259.8" class="st5" width="9.6" height="0.3"/>
				</g>
				<g>
					<g>
						<linearGradient id="SVGID_3_" gradientUnits="userSpaceOnUse" x1="681.8159" y1="233.967" x2="683.5494" y2="233.967">
							<stop  offset="0.1816" style="stop-color:#D3AC89"/>
							<stop  offset="0.8128" style="stop-color:#D5AF8D"/>
						</linearGradient>
						<polygon class="st7" points="681.8,229.5 683.5,232 681.8,238.4 						"/>
						<polygon class="st5" points="681.8,229.5 680.1,232 681.8,238.4 						"/>
					</g>
					<g>
						
							<linearGradient id="SVGID_4_" gradientUnits="userSpaceOnUse" x1="2070.6663" y1="-651.0167" x2="2072.4075" y2="-651.0167" gradientTransform="matrix(0.5 -0.866 0.866 0.5 205.1284 2355.7065)">
							<stop  offset="0.1816" style="stop-color:#D3AC89"/>
							<stop  offset="0.8128" style="stop-color:#D5AF8D"/>
						</linearGradient>
						<polygon class="st8" points="672.8,234.7 675.8,234.4 680.5,239.2 						"/>
						<polygon class="st5" points="672.8,234.7 674.1,237.5 680.5,239.2 						"/>
					</g>
					<g>
						
							<linearGradient id="SVGID_5_" gradientUnits="userSpaceOnUse" x1="3531.5068" y1="109.2661" x2="3533.2449" y2="109.2661" gradientTransform="matrix(-0.5 -0.866 0.866 -0.5 2347.7942 3355.9133)">
							<stop  offset="0.1816" style="stop-color:#D3AC89"/>
							<stop  offset="0.8128" style="stop-color:#D5AF8D"/>
						</linearGradient>
						<polygon class="st9" points="672.8,245.1 674.1,242.4 680.5,240.7 						"/>
						<polygon class="st5" points="672.8,245.1 675.8,245.4 680.5,240.7 						"/>
					</g>
					<g>
						
							<linearGradient id="SVGID_6_" gradientUnits="userSpaceOnUse" x1="3603.5159" y1="1754.5325" x2="3605.2495" y2="1754.5325" gradientTransform="matrix(-1 0 0 -1 4285.332 2000.4137)">
							<stop  offset="0.1816" style="stop-color:#D3AC89"/>
							<stop  offset="0.8128" style="stop-color:#D5AF8D"/>
						</linearGradient>
						<polygon class="st10" points="681.8,250.4 680.1,247.9 681.8,241.4 						"/>
						<polygon class="st5" points="681.8,250.4 683.5,247.9 681.8,241.4 						"/>
					</g>
					<g>
						
							<linearGradient id="SVGID_7_" gradientUnits="userSpaceOnUse" x1="2214.668" y1="2639.5325" x2="2216.4092" y2="2639.5325" gradientTransform="matrix(-0.5 0.866 -0.866 -0.5 4080.2034 -355.2928)">
							<stop  offset="0.1816" style="stop-color:#D3AC89"/>
							<stop  offset="0.8128" style="stop-color:#D5AF8D"/>
						</linearGradient>
						<polygon class="st11" points="690.8,245.1 687.8,245.4 683.1,240.7 						"/>
						<polygon class="st5" points="690.8,245.1 689.5,242.4 683.1,240.7 						"/>
					</g>
					<g>
						
							<linearGradient id="SVGID_8_" gradientUnits="userSpaceOnUse" x1="753.8084" y1="1879.2499" x2="755.5464" y2="1879.2499" gradientTransform="matrix(0.5 0.866 -0.866 0.5 1937.5375 -1355.4996)">
							<stop  offset="0.1816" style="stop-color:#D3AC89"/>
							<stop  offset="0.8128" style="stop-color:#D5AF8D"/>
						</linearGradient>
						<polygon class="st12" points="690.8,234.7 689.5,237.5 683.1,239.2 						"/>
						<polygon class="st5" points="690.8,234.7 687.8,234.4 683.1,239.2 						"/>
					</g>
					<g>
						<g>
							
								<linearGradient id="SVGID_9_" gradientUnits="userSpaceOnUse" x1="354.1907" y1="377.5096" x2="356.6877" y2="377.5096" gradientTransform="matrix(0.4498 0.8931 -0.8931 0.4498 862.7011 -253.6209)">
								<stop  offset="0.1816" style="stop-color:#D3AC89"/>
								<stop  offset="0.8128" style="stop-color:#D5AF8D"/>
							</linearGradient>
							<polygon class="st13" points="686.6,231.7 686.3,234.6 684.3,235.6 							"/>
						</g>
						<g>
							<polygon class="st5" points="686.6,231.7 684.2,233.4 684.3,235.6 							"/>
						</g>
					</g>
					<g>
						<g>
							
								<linearGradient id="SVGID_10_" gradientUnits="userSpaceOnUse" x1="1856.0055" y1="1053.3149" x2="1858.4961" y2="1053.3149" gradientTransform="matrix(-0.5485 0.8361 -0.8361 -0.5485 2588.5303 -735.1891)">
								<stop  offset="0.1816" style="stop-color:#D3AC89"/>
								<stop  offset="0.8128" style="stop-color:#D5AF8D"/>
							</linearGradient>
							<polygon class="st14" points="691.3,239.9 688.6,241.1 686.8,239.9 							"/>
						</g>
						<g>
							<polygon class="st5" points="691.3,239.9 688.6,238.7 686.8,239.9 							"/>
						</g>
					</g>
					<g>
						<g>
							
								<linearGradient id="SVGID_11_" gradientUnits="userSpaceOnUse" x1="3192.1653" y1="90.6054" x2="3194.6563" y2="90.6054" gradientTransform="matrix(-0.9984 -5.698544e-02 5.698544e-02 -0.9984 3868.4951 518.6387)">
								<stop  offset="0.1816" style="stop-color:#D3AC89"/>
								<stop  offset="0.8128" style="stop-color:#D5AF8D"/>
							</linearGradient>
							<polygon class="st15" points="686.6,248.2 684.2,246.4 684.3,244.2 							"/>
						</g>
						<g>
							<polygon class="st5" points="686.6,248.2 686.3,245.2 684.3,244.2 							"/>
						</g>
					</g>
					<g>
						<g>
							
								<linearGradient id="SVGID_12_" gradientUnits="userSpaceOnUse" x1="3026.512" y1="-1547.8864" x2="3029.009" y2="-1547.8864" gradientTransform="matrix(-0.4498 -0.8931 0.8931 -0.4498 3422.6306 2254.0347)">
								<stop  offset="0.1816" style="stop-color:#D3AC89"/>
								<stop  offset="0.8128" style="stop-color:#D5AF8D"/>
							</linearGradient>
							<polygon class="st16" points="677.1,248.2 677.4,245.2 679.3,244.2 							"/>
						</g>
						<g>
							<polygon class="st5" points="677.1,248.2 679.4,246.4 679.3,244.2 							"/>
						</g>
					</g>
					<g>
						<g>
							
								<linearGradient id="SVGID_13_" gradientUnits="userSpaceOnUse" x1="1524.7244" y1="-2223.6812" x2="1527.215" y2="-2223.6812" gradientTransform="matrix(0.5485 -0.8361 0.8361 0.5485 1696.8016 2735.6028)">
								<stop  offset="0.1816" style="stop-color:#D3AC89"/>
								<stop  offset="0.8128" style="stop-color:#D5AF8D"/>
							</linearGradient>
							<polygon class="st17" points="672.3,239.9 675,238.7 676.8,239.9 							"/>
						</g>
						<g>
							<polygon class="st5" points="672.3,239.9 675,241.1 676.8,239.9 							"/>
						</g>
					</g>
					<g>
						<g>
							
								<linearGradient id="SVGID_14_" gradientUnits="userSpaceOnUse" x1="188.5628" y1="-1260.9948" x2="191.0538" y2="-1260.9948" gradientTransform="matrix(0.9984 5.698544e-02 -5.698544e-02 0.9984 416.8368 1481.775)">
								<stop  offset="0.1816" style="stop-color:#D3AC89"/>
								<stop  offset="0.8128" style="stop-color:#D5AF8D"/>
							</linearGradient>
							<polygon class="st18" points="677.1,231.7 679.4,233.4 679.3,235.6 							"/>
						</g>
						<g>
							<polygon class="st5" points="677.1,231.7 677.4,234.6 679.3,235.6 							"/>
						</g>
					</g>
				</g>
			</g>
		</g>
	</g>
	<g>
		<linearGradient id="SVGID_15_" gradientUnits="userSpaceOnUse" x1="627.2164" y1="320.3014" x2="729.1713" y2="320.3014">
			<stop  offset="0.1816" style="stop-color:#D3AC89"/>
			<stop  offset="0.8128" style="stop-color:#D5AF8D"/>
		</linearGradient>
		<path class="st19" d="M728.7,328.3H627.6c-0.2,0-0.4-0.2-0.4-0.4v-15.2c0-0.2,0.2-0.4,0.4-0.4h101.1c0.2,0,0.4,0.2,0.4,0.4v15.2
			C729.2,328.1,729,328.3,728.7,328.3z"/>
		<g>
			<linearGradient id="SVGID_16_" gradientUnits="userSpaceOnUse" x1="631.2728" y1="320.5028" x2="638.3148" y2="320.5028">
				<stop  offset="0" style="stop-color:#0E2D2A"/>
				<stop  offset="1" style="stop-color:#20423D"/>
			</linearGradient>
			<path class="st20" d="M638.3,320.1c0,1.2-0.4,2.2-1.3,2.9c-0.4,0.3-0.8,0.5-1.2,0.6c-0.4,0.1-1,0.2-1.7,0.2c-0.2,0-0.6,0-1.3,0
				c-0.3,0-0.6,0-0.8,0l-0.3,0c0-0.1,0-0.3,0.1-0.4c0-0.4,0.1-0.9,0.1-1.4v-3.1c0-0.5,0-0.8-0.1-1c0-0.2-0.2-0.3-0.5-0.3h-0.1
				l0.2-0.5h0.3h0.9c0.2,0,0.6,0,0.9,0c0.4,0,0.6,0,0.7,0c0.4,0,0.7,0,1,0c0.8,0,1.4,0.2,1.8,0.4
				C637.9,318.1,638.3,318.9,638.3,320.1z M636.6,320.5c0-0.9-0.2-1.5-0.6-2c-0.2-0.2-0.4-0.4-0.7-0.5c-0.3-0.1-0.6-0.1-1.1-0.1
				c-0.3,0-0.5,0-0.8,0l0,1l0,2.9c0,0.1,0,0.3,0,0.4c0,0.3,0.1,0.5,0.2,0.6c0.1,0.1,0.4,0.2,0.9,0.2c0.7,0,1.2-0.2,1.6-0.7
				C636.4,322,636.6,321.3,636.6,320.5z"/>
			<linearGradient id="SVGID_17_" gradientUnits="userSpaceOnUse" x1="638.8004" y1="320.498" x2="641.1067" y2="320.498">
				<stop  offset="0" style="stop-color:#0E2D2A"/>
				<stop  offset="1" style="stop-color:#20423D"/>
			</linearGradient>
			<path class="st21" d="M641.1,323.8h-0.4h-1h-0.4c0-0.1,0-0.3,0.1-0.4c0-0.3,0.1-0.8,0.1-1.4l0-3.1c0-0.4,0-0.8-0.1-1
				c0-0.2-0.2-0.3-0.5-0.3h-0.1l0.2-0.5h0.4h1.1h0.5c-0.1,0.6-0.1,1.2-0.1,1.6l0,3.2C640.9,322.8,641,323.4,641.1,323.8z"/>
			<linearGradient id="SVGID_18_" gradientUnits="userSpaceOnUse" x1="641.5355" y1="320.3879" x2="648.349" y2="320.3879">
				<stop  offset="0" style="stop-color:#0E2D2A"/>
				<stop  offset="1" style="stop-color:#20423D"/>
			</linearGradient>
			<path class="st22" d="M648.3,323.8h-0.4h-1h-0.6c0-0.4-0.1-0.9-0.3-1.4l-0.3-0.8h-0.7h-1h-0.7l-0.3,0.8c-0.1,0.4-0.2,0.7-0.2,0.9
				c0,0.1,0,0.3,0.1,0.5h-0.3H642h-0.4l0-0.1c0.2-0.3,0.3-0.6,0.5-1c0.1-0.2,0.1-0.4,0.3-0.6l1.5-3.9c0.2-0.4,0.3-0.8,0.4-1.2l0.4,0
				l0.8-0.1l0.4-0.1c0.1,0.3,0.1,0.6,0.3,1l1.5,4.2c0.1,0.3,0.3,0.8,0.5,1.3C648.2,323.6,648.3,323.7,648.3,323.8z M645.6,320.9
				l-0.9-2.8l-1,2.8h0.6h0.7H645.6z"/>
			<linearGradient id="SVGID_19_" gradientUnits="userSpaceOnUse" x1="648.683" y1="320.5312" x2="657.3262" y2="320.5312">
				<stop  offset="0" style="stop-color:#0E2D2A"/>
				<stop  offset="1" style="stop-color:#20423D"/>
			</linearGradient>
			<path class="st23" d="M657.3,323.8h-0.4h-1h-0.4c0-0.3,0-0.5,0-0.8c0-0.4,0-0.7,0-0.9l-0.2-3.5l-1.8,4.1
				c-0.1,0.2-0.1,0.3-0.2,0.6c-0.1,0.2-0.1,0.4-0.2,0.6h-0.3h-0.4h-0.3c0-0.1,0-0.2,0-0.2c0-0.2-0.1-0.5-0.3-0.9l-1.7-4.1l0,0.8
				l-0.2,2.4c0,0.3,0,0.5,0,0.8c0,0.5,0,0.9,0.1,1.1h-0.4h-0.5h-0.4l0-0.1c0-0.1,0.1-0.2,0.1-0.3c0.1-0.4,0.1-0.9,0.2-1.5l0.2-2.9
				c0-0.3,0-0.5,0-0.6v-0.1c0-0.3,0-0.4-0.1-0.5c-0.1-0.1-0.2-0.1-0.4-0.1h-0.1l0.2-0.5l0.5,0h1.3l0.6,0c0.1,0.4,0.2,0.8,0.4,1.1
				l1.5,3.7l0.3-0.6l1.3-3c0.1-0.3,0.2-0.7,0.4-1.1l0.5,0l1.5,0c0,0.3,0,0.4,0,0.6c0,0.3,0,0.7,0,1l0.2,3.3c0,0.5,0.1,1,0.2,1.4
				C657.2,323.6,657.3,323.7,657.3,323.8z"/>
			<linearGradient id="SVGID_20_" gradientUnits="userSpaceOnUse" x1="657.973" y1="320.4833" x2="665.2534" y2="320.4833">
				<stop  offset="0" style="stop-color:#0E2D2A"/>
				<stop  offset="1" style="stop-color:#20423D"/>
			</linearGradient>
			<path class="st24" d="M665.3,320.4c0,1.1-0.4,2-1.1,2.7c-0.7,0.7-1.6,1-2.7,1c-1,0-1.9-0.3-2.5-1c-0.6-0.6-1-1.5-1-2.5
				c0-1.1,0.4-1.9,1.1-2.6c0.7-0.7,1.6-1,2.7-1c0.7,0,1.3,0.1,1.8,0.4c0.5,0.3,1,0.7,1.3,1.2S665.3,319.7,665.3,320.4z M663.6,320.6
				c0-0.9-0.2-1.6-0.5-2.2c-0.3-0.5-0.8-0.8-1.4-0.8c-0.6,0-1.1,0.2-1.5,0.7c-0.3,0.5-0.5,1.1-0.5,2c0,0.9,0.2,1.6,0.5,2.2
				c0.4,0.5,0.8,0.8,1.5,0.8c0.6,0,1.1-0.2,1.4-0.7C663.4,322.1,663.6,321.5,663.6,320.6z"/>
			<linearGradient id="SVGID_21_" gradientUnits="userSpaceOnUse" x1="665.7966" y1="320.5361" x2="672.4293" y2="320.5361">
				<stop  offset="0" style="stop-color:#0E2D2A"/>
				<stop  offset="1" style="stop-color:#20423D"/>
			</linearGradient>
			<path class="st25" d="M672.4,323.9h-0.6h-0.6c-0.3-0.5-0.5-0.8-0.7-1l-3.1-4l0,0.5l0,2.6c0,0.5,0,1,0.1,1.4
				c0,0.1,0.1,0.3,0.1,0.4h-0.4h-0.5h-0.4c0-0.1,0-0.3,0.1-0.4c0-0.3,0.1-0.8,0.1-1.4v-3c0-0.5,0-0.8-0.1-1c0-0.2-0.2-0.3-0.5-0.3
				h-0.1l0.2-0.5h0.4h1.1h0.6c0.3,0.5,0.5,0.8,0.7,1.1l2.5,3.4l0-2.5c0-0.6-0.1-1.1-0.1-1.5c0-0.2-0.1-0.3-0.1-0.4h0.4h0.5h0.4
				c0,0.1-0.1,0.3-0.1,0.4c0,0.3-0.1,0.8-0.1,1.6l0,2.9c0,0.1,0,0.2,0,0.6C672.3,323,672.4,323.5,672.4,323.9z"/>
			<linearGradient id="SVGID_22_" gradientUnits="userSpaceOnUse" x1="673.3055" y1="320.5028" x2="680.3477" y2="320.5028">
				<stop  offset="0" style="stop-color:#0E2D2A"/>
				<stop  offset="1" style="stop-color:#20423D"/>
			</linearGradient>
			<path class="st26" d="M680.3,320.1c0,1.2-0.4,2.2-1.3,2.9c-0.4,0.3-0.8,0.5-1.2,0.6c-0.4,0.1-1,0.2-1.7,0.2c-0.2,0-0.6,0-1.3,0
				c-0.3,0-0.6,0-0.8,0l-0.3,0c0-0.1,0-0.3,0.1-0.4c0-0.4,0.1-0.9,0.1-1.4v-3.1c0-0.5,0-0.8-0.1-1c0-0.2-0.2-0.3-0.5-0.3h-0.1
				l0.2-0.5h0.3h0.9c0.2,0,0.6,0,0.9,0c0.4,0,0.6,0,0.7,0c0.4,0,0.7,0,1,0c0.8,0,1.4,0.2,1.8,0.4
				C679.9,318.1,680.3,318.9,680.3,320.1z M678.7,320.5c0-0.9-0.2-1.5-0.6-2c-0.2-0.2-0.4-0.4-0.7-0.5c-0.3-0.1-0.6-0.1-1.1-0.1
				c-0.3,0-0.5,0-0.8,0l0,1l0,2.9c0,0.1,0,0.3,0,0.4c0,0.3,0.1,0.5,0.2,0.6c0.1,0.1,0.4,0.2,0.9,0.2c0.7,0,1.2-0.2,1.6-0.7
				C678.5,322,678.7,321.3,678.7,320.5z"/>
			<linearGradient id="SVGID_23_" gradientUnits="userSpaceOnUse" x1="683.2635" y1="320.4882" x2="689.2007" y2="320.4882">
				<stop  offset="0" style="stop-color:#0E2D2A"/>
				<stop  offset="1" style="stop-color:#20423D"/>
			</linearGradient>
			<path class="st27" d="M689.2,317.3l-0.1,0.4l-0.1,0.6l-0.1,0.4l-0.2,0c-0.2-0.3-0.4-0.5-0.7-0.7c-0.3-0.2-0.7-0.3-1-0.3
				c-0.6,0-1.1,0.2-1.5,0.7c-0.4,0.5-0.5,1.1-0.5,1.9c0,0.8,0.2,1.5,0.6,2c0.4,0.5,1,0.8,1.7,0.8c0.3,0,0.6-0.1,0.9-0.2
				c0.3-0.1,0.5-0.2,0.7-0.4l0.2,0.1l-0.1,0.3l-0.1,0.4l-0.1,0.3c-0.4,0.1-0.7,0.2-0.9,0.2c-0.4,0.1-0.7,0.1-1.1,0.1
				c-0.7,0-1.2-0.1-1.7-0.4c-0.5-0.3-1-0.7-1.3-1.2c-0.3-0.6-0.5-1.2-0.5-1.9c0-1.1,0.4-2,1.2-2.7c0.7-0.6,1.6-0.9,2.8-0.9
				c0.3,0,0.5,0,0.8,0.1C688.4,317.1,688.8,317.2,689.2,317.3z"/>
			<linearGradient id="SVGID_24_" gradientUnits="userSpaceOnUse" x1="689.658" y1="320.5121" x2="694.6897" y2="320.5121">
				<stop  offset="0" style="stop-color:#0E2D2A"/>
				<stop  offset="1" style="stop-color:#20423D"/>
			</linearGradient>
			<path class="st28" d="M694.7,322.6l-0.1,0.4l-0.1,0.5l0,0.4l-0.4,0l-2.8,0h-1.1c0-0.1,0-0.3,0.1-0.4c0-0.3,0.1-0.8,0.1-1.4v-3.1
				c0-0.4,0-0.8-0.1-1c0-0.2-0.2-0.3-0.5-0.3h-0.1l0.2-0.5l1.1,0l2.9,0c0,0,0.1,0,0.2,0c0.1,0,0.2,0,0.3,0l-0.1,0.4l-0.1,0.5
				l-0.1,0.3l-0.2,0c-0.1-0.2-0.3-0.3-0.5-0.4c-0.2-0.1-0.5-0.1-0.9-0.1c-0.1,0-0.3,0-0.6,0l0,1v1h1.1c0.2,0,0.6,0,1-0.1l0,0.2
				l0,0.4l0,0.3c-0.5,0-0.9-0.1-1.3-0.1c-0.3,0-0.5,0-0.8,0v1.2c0,0.4,0,0.7,0.1,0.8c0,0.1,0.1,0.2,0.1,0.2c0.1,0.1,0.5,0.2,0.9,0.2
				c0.5,0,0.8-0.1,1.1-0.2c0.1-0.1,0.3-0.2,0.5-0.3L694.7,322.6z"/>
			<linearGradient id="SVGID_25_" gradientUnits="userSpaceOnUse" x1="695.0804" y1="320.5361" x2="701.7131" y2="320.5361">
				<stop  offset="0" style="stop-color:#0E2D2A"/>
				<stop  offset="1" style="stop-color:#20423D"/>
			</linearGradient>
			<path class="st29" d="M701.7,323.9h-0.6h-0.6c-0.3-0.5-0.5-0.8-0.7-1l-3.1-4l0,0.5l0,2.6c0,0.5,0,1,0.1,1.4
				c0,0.1,0.1,0.3,0.1,0.4h-0.4H696h-0.4c0-0.1,0-0.3,0.1-0.4c0-0.3,0.1-0.8,0.1-1.4v-3c0-0.5,0-0.8-0.1-1c0-0.2-0.2-0.3-0.5-0.3
				h-0.1l0.2-0.5h0.4h1.1h0.6c0.3,0.5,0.5,0.8,0.7,1.1l2.5,3.4l0-2.5c0-0.6-0.1-1.1-0.1-1.5c0-0.2-0.1-0.3-0.1-0.4h0.4h0.5h0.4
				c0,0.1-0.1,0.3-0.1,0.4c0,0.3-0.1,0.8-0.1,1.6l0,2.9c0,0.1,0,0.2,0,0.6C701.6,323,701.6,323.5,701.7,323.9z"/>
			<linearGradient id="SVGID_26_" gradientUnits="userSpaceOnUse" x1="702.1127" y1="320.4931" x2="708.345" y2="320.4931">
				<stop  offset="0" style="stop-color:#0E2D2A"/>
				<stop  offset="1" style="stop-color:#20423D"/>
			</linearGradient>
			<path class="st30" d="M708.3,317.2l-0.1,0.4l-0.1,0.5l0,0.3l-0.2,0c-0.1-0.2-0.3-0.3-0.5-0.4c-0.3-0.1-0.6-0.1-1-0.1
				c-0.2,0-0.3,0-0.4,0l0,0.9v3.2c0,0.8,0.1,1.4,0.2,1.8h-0.4h-1h-0.4c0-0.1,0-0.3,0.1-0.4c0-0.3,0.1-0.8,0.1-1.4v-3.1
				c0-0.3,0-0.5,0-0.6c0-0.1,0-0.2,0-0.5c-0.5,0-0.9,0-1.2,0.1c-0.1,0-0.2,0.1-0.4,0.1c-0.2,0.1-0.4,0.2-0.6,0.4l-0.2-0.1l0-0.3
				l0.1-0.5l0-0.4l0.4,0c1.2,0,2,0,2.5,0c0.5,0,1.4,0,2.6,0L708.3,317.2z"/>
			<linearGradient id="SVGID_27_" gradientUnits="userSpaceOnUse" x1="708.3158" y1="320.5218" x2="714.8528" y2="320.5218">
				<stop  offset="0" style="stop-color:#0E2D2A"/>
				<stop  offset="1" style="stop-color:#20423D"/>
			</linearGradient>
			<path class="st31" d="M714.9,323.7L714.9,323.7l-0.4,0.1l-1.6,0l-0.1-0.2l-0.1-0.3c0-0.1-0.1-0.2-0.2-0.3c-0.4-0.7-0.7-1.3-1-1.8
				c-0.1-0.2-0.2-0.4-0.3-0.4c-0.1-0.1-0.2-0.1-0.3-0.1c0,0-0.1,0-0.1,0l0.1-0.3l0-0.3c0.1,0,0.2,0,0.3,0c0.3,0,0.6-0.1,0.8-0.3
				c0.2-0.2,0.3-0.5,0.3-0.9c0-0.8-0.4-1.2-1.2-1.2c-0.1,0-0.3,0-0.6,0c0,0.5,0,0.8,0,1v3.2c0,0.8,0.1,1.4,0.2,1.8h-0.4h-1h-0.4
				c0-0.1,0-0.3,0.1-0.4c0-0.3,0.1-0.8,0.1-1.4v-3.1c0-0.4,0-0.8-0.1-1c0-0.2-0.2-0.3-0.5-0.3h-0.1l0.2-0.5h0.6h2.8
				c0.6,0,1.1,0.1,1.4,0.4c0.3,0.3,0.4,0.6,0.4,1.1c0,0.8-0.4,1.3-1.3,1.6l0.2,0.4c0.3,0.5,0.8,1.2,1.3,2.1c0.1,0.2,0.3,0.4,0.4,0.6
				C714.6,323.5,714.7,323.6,714.9,323.7z"/>
			<linearGradient id="SVGID_28_" gradientUnits="userSpaceOnUse" x1="714.4337" y1="320.3879" x2="721.2473" y2="320.3879">
				<stop  offset="0" style="stop-color:#0E2D2A"/>
				<stop  offset="1" style="stop-color:#20423D"/>
			</linearGradient>
			<path class="st32" d="M721.2,323.8h-0.4h-1h-0.6c0-0.4-0.1-0.9-0.3-1.4l-0.3-0.8H718h-1h-0.7l-0.3,0.8c-0.1,0.4-0.2,0.7-0.2,0.9
				c0,0.1,0,0.3,0.1,0.5h-0.3h-0.8h-0.4l0-0.1c0.2-0.3,0.3-0.6,0.5-1c0.1-0.2,0.1-0.4,0.3-0.6l1.5-3.9c0.2-0.4,0.3-0.8,0.4-1.2
				l0.4,0l0.8-0.1l0.4-0.1c0.1,0.3,0.1,0.6,0.3,1l1.5,4.2c0.1,0.3,0.3,0.8,0.5,1.3C721.1,323.6,721.2,323.7,721.2,323.8z
				 M718.5,320.9l-0.9-2.8l-1,2.8h0.6h0.7H718.5z"/>
			<linearGradient id="SVGID_29_" gradientUnits="userSpaceOnUse" x1="721.3332" y1="320.517" x2="726.3171" y2="320.517">
				<stop  offset="0" style="stop-color:#0E2D2A"/>
				<stop  offset="1" style="stop-color:#20423D"/>
			</linearGradient>
			<path class="st33" d="M726.3,322.6l-0.1,0.4l-0.1,0.5l-0.1,0.4l-0.4,0l-2.8,0h-1.1c0-0.1,0-0.3,0.1-0.4c0-0.3,0.1-0.8,0.1-1.4
				v-3.1c0-0.4,0-0.8-0.1-1c0-0.2-0.2-0.3-0.5-0.3h-0.1l0.2-0.5h0.4h1.1h0.5c-0.1,0.6-0.1,1.2-0.1,1.6v3c0,0.1,0,0.3,0,0.4
				c0,0.3,0.1,0.5,0.2,0.6c0.1,0.1,0.4,0.2,0.9,0.2c0.5,0,0.8-0.1,1.1-0.2c0.1-0.1,0.3-0.2,0.5-0.4L726.3,322.6z"/>
		</g>
	</g>
</g>
</svg>
