<?xml version="1.0" encoding="utf-8"?>
<!-- Generator: Adobe Illustrator 24.0.2, SVG Export Plug-In . SVG Version: 6.00 Build 0)  -->
<svg version="1.1" id="Layer_1" xmlns="http://www.w3.org/2000/svg" xmlns:xlink="http://www.w3.org/1999/xlink" x="0px" y="0px"
	 viewBox="0 0 140 140" style="enable-background:new 0 0 140 140;" xml:space="preserve">
<style type="text/css">
	.st0{fill:url(#SVGID_1_);}
	.st1{fill:url(#SVGID_2_);}
	.st2{fill:url(#SVGID_3_);}
	.st3{fill:#FFFFFF;stroke:#FFFFFF;stroke-width:0.2112;stroke-miterlimit:10;}
	.st4{fill:#FFFFFF;stroke:#FFFFFF;stroke-width:7.891127e-02;stroke-miterlimit:10;}
	.st5{fill:#A37751;}
	.st6{fill:url(#SVGID_4_);}
	.st7{fill:url(#SVGID_5_);}
	.st8{fill:url(#SVGID_6_);}
	.st9{fill:url(#SVGID_7_);}
	.st10{fill:url(#SVGID_8_);}
	.st11{fill:url(#SVGID_9_);}
	.st12{fill:url(#SVGID_10_);}
	.st13{fill:url(#SVGID_11_);}
	.st14{fill:url(#SVGID_12_);}
	.st15{fill:url(#SVGID_13_);}
	.st16{fill:url(#SVGID_14_);}
	.st17{fill:url(#SVGID_15_);}
	.st18{fill:url(#SVGID_16_);}
	.st19{fill:url(#SVGID_17_);}
	.st20{fill:url(#SVGID_18_);}
	.st21{fill:url(#SVGID_19_);}
	.st22{fill:url(#SVGID_20_);}
	.st23{fill:url(#SVGID_21_);}
	.st24{fill:url(#SVGID_22_);}
	.st25{fill:url(#SVGID_23_);}
	.st26{fill:url(#SVGID_24_);}
	.st27{fill:url(#SVGID_25_);}
	.st28{fill:url(#SVGID_26_);}
	.st29{fill:url(#SVGID_27_);}
	.st30{fill:url(#SVGID_28_);}
	.st31{fill:url(#SVGID_29_);}
	.st32{fill:url(#SVGID_30_);}
</style>
<g>
	<g>
		<g>
			<g>
				<g>
					
						<radialGradient id="SVGID_1_" cx="83.6848" cy="95.3539" r="62.0758" gradientTransform="matrix(1 0 0 -1 0 139.89)" gradientUnits="userSpaceOnUse">
						<stop  offset="0" style="stop-color:#F3F4F4"/>
						<stop  offset="0.3377" style="stop-color:#F0F1F2"/>
						<stop  offset="0.5396" style="stop-color:#E8E9EA"/>
						<stop  offset="0.7056" style="stop-color:#DADDDE"/>
						<stop  offset="0.8522" style="stop-color:#C8CCCE"/>
						<stop  offset="0.9847" style="stop-color:#B1B8BB"/>
						<stop  offset="1" style="stop-color:#AEB5B8"/>
					</radialGradient>
					<path class="st0" d="M73.6,106.5c-2.1,0-3.2-2.8-5.7-9.6c-1.5-4.1-3.6-9.8-6.7-16.8c-2.6-5.9-6-11.3-9.3-16.6
						C46.3,54.7,41.1,46.3,40,36.6c-1-9.3,1.8-18.2,8-25.2C54.5,4.3,63.8,0.2,73.6,0.2s19.1,4.1,25.5,11.2c6.2,6.9,9,15.8,8,25.2
						c-1.1,9.7-6.3,18.1-11.9,26.9c-3.3,5.3-6.7,10.7-9.3,16.6c-3.1,7-5.1,12.7-6.7,16.8C76.8,103.7,75.8,106.5,73.6,106.5z"/>
					
						<linearGradient id="SVGID_2_" gradientUnits="userSpaceOnUse" x1="40.8101" y1="86.49" x2="106.391" y2="86.49" gradientTransform="matrix(1 0 0 -1 0 139.89)">
						<stop  offset="0" style="stop-color:#F3F4F4"/>
						<stop  offset="9.562187e-02" style="stop-color:#EEEFF0"/>
						<stop  offset="0.2027" style="stop-color:#E1E3E4"/>
						<stop  offset="0.3154" style="stop-color:#CCD0D2"/>
						<stop  offset="0.4312" style="stop-color:#B0B8BB"/>
						<stop  offset="0.4413" style="stop-color:#AEB5B8"/>
					</linearGradient>
					<path class="st1" d="M73.6,1.1C54.5,1.1,38.9,16.9,41,36.5c1.7,15.4,14.2,27.6,21.1,43.3c7.5,17.2,8.9,25.9,11.5,25.9
						c2.5,0,3.9-8.6,11.5-25.9c6.9-15.7,19.4-27.9,21.1-43.3C108.3,16.9,92.8,1.1,73.6,1.1z"/>
				</g>
				<g>
					
						<radialGradient id="SVGID_3_" cx="73.585" cy="86.94" r="41.8445" gradientTransform="matrix(1 0 0 -1 0 139.89)" gradientUnits="userSpaceOnUse">
						<stop  offset="0" style="stop-color:#0E2D2A"/>
						<stop  offset="1" style="stop-color:#20423D"/>
					</radialGradient>
					<path class="st2" d="M73.6,102.8c-2,0-3-2.6-5.4-9c-1.4-3.9-3.4-9.1-6.3-15.7c-2.4-5.5-5.7-10.6-8.8-15.6
						C47.9,54.1,43,46.3,41.9,37.2c-1-8.7,1.7-17.1,7.6-23.6c6-6.7,14.8-10.5,24.1-10.5s18.1,3.8,24.1,10.5
						c5.9,6.5,8.5,14.9,7.6,23.6c-1,9.1-6,17-11.2,25.3c-3.1,4.9-6.4,10.1-8.8,15.6C82.4,84.7,80.4,90,79,93.8
						C76.6,100.1,75.6,102.8,73.6,102.8z"/>
				</g>
			</g>
		</g>
		<g>
			<g>
				<g>
					<g>
						<path class="st3" d="M53,38c0.3,0,0.6,0,0.8,0c0.3,0,0.6,0,0.9,0.1c0.3,0.1,0.6,0.2,0.9,0.3c0.3,0.2,0.5,0.4,0.8,0.6
							c0.2,0.2,0.4,0.6,0.5,1s0.2,0.9,0.2,1.5S57,42.6,56.8,43c-0.2,0.5-0.4,0.8-0.8,1.1c-0.6,0.5-1.4,0.7-2.3,0.7c-0.3,0-0.6,0-1,0
							h-0.5V38H53z M53,44.6c0.1,0,0.3,0,0.5,0s0.4,0,0.5,0s0.2,0,0.4-0.1c0.2,0,0.3-0.1,0.5-0.2c0.2-0.1,0.3-0.2,0.5-0.4
							s0.3-0.4,0.4-0.6c0.3-0.5,0.4-1.2,0.4-2.1c0-0.6-0.1-1.1-0.2-1.6c-0.1-0.4-0.3-0.8-0.5-1s-0.4-0.4-0.7-0.5s-0.5-0.2-0.6-0.2
							c-0.2,0-0.3,0-0.6,0c-0.2,0-0.4,0-0.6,0C53,37.9,53,44.6,53,44.6z"/>
						<path class="st3" d="M59,38.1L59,38.1l1.7-0.1v0.1h-0.5v6.5h0.5v0.1H59v-0.1h0.4v-6.5H59z"/>
						<path class="st3" d="M62.6,44.7L62.6,44.7l2.8-6.7h0.1l2.4,6.8h-0.8l-0.7-2.1h-2.8L62.6,44.7z M65.1,39l-1.5,3.5h2.7L65.1,39z
							"/>
						<path class="st3" d="M69.9,44.7L69.9,44.7l0.7-6.7h0.3l2,6.2l2-6.2h0.3l0.8,6.7h-0.8l-0.7-5.4l-1.7,5.4h-0.6l-1.8-5.3
							L69.9,44.7z"/>
						<path class="st3" d="M78,41.5c0-1.2,0.3-2,0.8-2.7c0.6-0.6,1.3-0.9,2.2-0.9c0.9,0,1.6,0.3,2.1,0.8s0.8,1.4,0.8,2.5
							c0,1.2-0.3,2-0.8,2.6c-0.6,0.6-1.3,0.9-2.3,0.9c-0.8,0-1.5-0.2-2-0.7c-0.3-0.2-0.5-0.6-0.6-1C78.1,42.6,78,42.1,78,41.5z
							 M81,38.1c-0.6,0-1.2,0.3-1.6,0.9s-0.6,1.4-0.6,2.5s0.2,1.9,0.6,2.4s0.9,0.8,1.6,0.8c0.6,0,1.2-0.3,1.6-0.9
							c0.4-0.6,0.6-1.4,0.6-2.5s-0.2-1.9-0.6-2.4C82.2,38.3,81.7,38.1,81,38.1z"/>
						<path class="st3" d="M86,44.7L86,44.7L85.9,38h0.3l4,6.2V38h0.1v6.7h-0.7L86,39.1V44.7z"/>
						<path class="st3" d="M93.4,38c0.3,0,0.6,0,0.8,0s0.6,0,0.9,0.1s0.6,0.2,0.9,0.3c0.3,0.2,0.5,0.4,0.8,0.6
							c0.2,0.2,0.4,0.6,0.5,1s0.2,0.9,0.2,1.5s-0.1,1.1-0.3,1.5c-0.2,0.5-0.4,0.8-0.8,1.1c-0.6,0.5-1.4,0.7-2.3,0.7
							c-0.3,0-0.6,0-1,0h-0.5V38H93.4z M93.4,44.6c0.1,0,0.3,0,0.5,0s0.4,0,0.5,0s0.2,0,0.4-0.1c0.2,0,0.3-0.1,0.5-0.2
							c0.2-0.1,0.3-0.2,0.5-0.4s0.3-0.4,0.4-0.6c0.3-0.5,0.4-1.2,0.4-2.1c0-0.6-0.1-1.1-0.2-1.6c-0.1-0.4-0.3-0.8-0.5-1
							s-0.4-0.4-0.7-0.5c-0.3-0.1-0.5-0.2-0.6-0.2c-0.2,0-0.3,0-0.6,0s-0.4,0-0.6,0L93.4,44.6L93.4,44.6z"/>
					</g>
					<g>
						<g>
							<path class="st4" d="M66,50.2c-0.5,0-0.8-0.1-1.1-0.4c-0.1-0.1-0.1-0.2-0.2-0.4s-0.1-0.4-0.1-0.6c0-0.2,0-0.4,0.1-0.6
								c0.1-0.2,0.2-0.3,0.3-0.4c0.3-0.2,0.6-0.3,0.9-0.3c0.1,0,0.2,0,0.3,0c0.1,0,0.2,0,0.2,0.1h0.1l0,0c-0.2-0.1-0.4-0.1-0.6-0.1
								c-0.3,0-0.5,0.1-0.7,0.3c-0.1,0.1-0.2,0.3-0.3,0.6c0,0.1,0,0.3,0,0.5s0,0.4,0.1,0.6c0.1,0.2,0.1,0.3,0.2,0.4
								c0.1,0.1,0.2,0.1,0.3,0.2c0.1,0,0.2,0.1,0.3,0.1S65.9,50.1,66,50.2c0.1,0,0.2,0,0.3-0.1c0.1,0,0.2,0,0.3,0h0.1l0,0
								C66.5,50.1,66.2,50.2,66,50.2z"/>
							<path class="st4" d="M69.5,47.5L69.5,47.5h-1.2v1.1h1.1l0,0h-1.1V50h1.3l0,0H68v-2.7h1.5V47.5z"/>
							<path class="st4" d="M71,50.2L71,50.2v-2.7h0.1l1.6,2.5v-2.5l0,0v2.7h-0.3L71,48V50.2z"/>
							<path class="st4" d="M75,50.2h-0.3v-2.6H74l0,0h1.6l0,0H75V50.2z"/>
							<path class="st4" d="M77,47.5c0.3,0,0.6,0,0.8,0c0.6,0,0.9,0.2,0.9,0.6c0,0.2,0,0.3-0.1,0.5c-0.1,0.1-0.2,0.2-0.4,0.3
								l0.8,1.3h-0.4l-0.7-1.3h-0.5v1.3H77V47.5z M77.8,47.5c-0.1,0-0.3,0-0.5,0v1.3h0.6c0.4,0,0.5-0.3,0.5-0.7
								c0-0.2-0.1-0.3-0.2-0.4C78.1,47.6,78,47.5,77.8,47.5z"/>
							<path class="st4" d="M80.1,50.2L80.1,50.2l1.1-2.7l0,0l1,2.7h-0.3l-0.3-0.8h-1.1L80.1,50.2z M81.1,47.9l-0.6,1.4h1.1
								L81.1,47.9z"/>
							<path class="st4" d="M84.9,50.2h-1.4v-2.7h0.3v2.6L84.9,50.2L84.9,50.2z"/>
						</g>
					</g>
					<rect x="49.3" y="48.5" class="st5" width="12.8" height="0.4"/>
					<rect x="86.7" y="48.5" class="st5" width="12.8" height="0.4"/>
				</g>
				<g>
					<g>
						
							<linearGradient id="SVGID_4_" gradientUnits="userSpaceOnUse" x1="74.8365" y1="125.84" x2="77.1515" y2="125.84" gradientTransform="matrix(1 0 0 -1 0 139.89)">
							<stop  offset="0.1816" style="stop-color:#D2AC88"/>
							<stop  offset="0.8128" style="stop-color:#D3AE8D"/>
						</linearGradient>
						<polygon class="st6" points="74.8,8.1 77.2,11.4 74.8,20 						"/>
						<polygon class="st5" points="74.8,8.1 72.5,11.4 74.8,20 						"/>
					</g>
					<g>
						
							<linearGradient id="SVGID_5_" gradientUnits="userSpaceOnUse" x1="959.0155" y1="1151.7446" x2="961.3306" y2="1151.7446" gradientTransform="matrix(0.5 -0.866 -0.866 -0.5 585.8355 1424.4103)">
							<stop  offset="0.1816" style="stop-color:#D2AC88"/>
							<stop  offset="0.8128" style="stop-color:#D3AE8D"/>
						</linearGradient>
						<polygon class="st7" points="62.8,15 66.8,14.7 73.1,21 						"/>
						<polygon class="st5" points="62.8,15 64.5,18.7 73.1,21 						"/>
					</g>
					<g>
						
							<linearGradient id="SVGID_6_" gradientUnits="userSpaceOnUse" x1="2289.5151" y1="898.9041" x2="2291.8301" y2="898.9041" gradientTransform="matrix(-0.5 -0.866 -0.866 0.5 1991.1816 1559.3082)">
							<stop  offset="0.1816" style="stop-color:#D2AC88"/>
							<stop  offset="0.8128" style="stop-color:#D3AE8D"/>
						</linearGradient>
						<polygon class="st8" points="62.8,29 64.5,25.3 73.1,23 						"/>
						<polygon class="st5" points="62.8,29 66.8,29.3 73.1,23 						"/>
					</g>
					<g>
						
							<linearGradient id="SVGID_7_" gradientUnits="userSpaceOnUse" x1="2735.8557" y1="-379.7361" x2="2738.1709" y2="-379.7361" gradientTransform="matrix(-1 0 0 1 2810.6924 409.686)">
							<stop  offset="0.1816" style="stop-color:#D2AC88"/>
							<stop  offset="0.8128" style="stop-color:#D3AE8D"/>
						</linearGradient>
						<polygon class="st9" points="74.8,35.9 72.5,32.6 74.8,24 						"/>
						<polygon class="st5" points="74.8,35.9 77.2,32.6 74.8,24 						"/>
					</g>
					<g>
						
							<linearGradient id="SVGID_8_" gradientUnits="userSpaceOnUse" x1="1851.6768" y1="-1405.6185" x2="1853.9917" y2="-1405.6185" gradientTransform="matrix(-0.5 0.866 0.866 0.5 2224.8567 -874.8342)">
							<stop  offset="0.1816" style="stop-color:#D2AC88"/>
							<stop  offset="0.8128" style="stop-color:#D3AE8D"/>
						</linearGradient>
						<polygon class="st10" points="86.9,29 82.8,29.3 76.5,23 						"/>
						<polygon class="st5" points="86.9,29 85.2,25.3 76.5,23 						"/>
					</g>
					<g>
						
							<linearGradient id="SVGID_9_" gradientUnits="userSpaceOnUse" x1="521.1772" y1="-1152.861" x2="523.4921" y2="-1152.861" gradientTransform="matrix(0.5 0.866 0.866 -0.5 819.5107 -1009.7323)">
							<stop  offset="0.1816" style="stop-color:#D2AC88"/>
							<stop  offset="0.8128" style="stop-color:#D3AE8D"/>
						</linearGradient>
						<polygon class="st11" points="86.9,15 85.2,18.7 76.5,21 						"/>
						<polygon class="st5" points="86.9,15 82.8,14.7 76.5,21 						"/>
					</g>
					<g>
						<g>
							
								<linearGradient id="SVGID_10_" gradientUnits="userSpaceOnUse" x1="127.0226" y1="377.9915" x2="130.3484" y2="377.9915" gradientTransform="matrix(0.4498 0.8931 0.8931 -0.4498 -315.7649 68.6956)">
								<stop  offset="0.1816" style="stop-color:#D2AC88"/>
								<stop  offset="0.8128" style="stop-color:#D3AE8D"/>
							</linearGradient>
							<polygon class="st12" points="81.2,11 80.8,14.9 78.2,16.2 							"/>
						</g>
						<g>
							<polygon class="st5" points="81.2,11 78,13.3 78.1,16.2 							"/>
						</g>
					</g>
					<g>
						<g>
							
								<linearGradient id="SVGID_11_" gradientUnits="userSpaceOnUse" x1="1469.78" y1="201.3416" x2="1473.1058" y2="201.3416" gradientTransform="matrix(-0.5485 0.8361 0.8361 0.5485 723.2769 -1318.7582)">
								<stop  offset="0.1816" style="stop-color:#D2AC88"/>
								<stop  offset="0.8128" style="stop-color:#D3AE8D"/>
							</linearGradient>
							<polygon class="st13" points="87.5,22 84,23.6 81.5,22 							"/>
						</g>
						<g>
							<polygon class="st5" points="87.5,22 84,20.4 81.5,22 							"/>
						</g>
					</g>
					<g>
						<g>
							
								<linearGradient id="SVGID_12_" gradientUnits="userSpaceOnUse" x1="2294.0552" y1="1275.9202" x2="2297.3811" y2="1275.9202" gradientTransform="matrix(-0.9984 -5.698544e-02 -5.698544e-02 0.9984 2444.3579 -1112.7115)">
								<stop  offset="0.1816" style="stop-color:#D2AC88"/>
								<stop  offset="0.8128" style="stop-color:#D3AE8D"/>
							</linearGradient>
							<polygon class="st14" points="81.2,33 78,30.7 78.2,27.7 							"/>
						</g>
						<g>
							<polygon class="st5" points="81.2,33 80.8,29.1 78.2,27.7 							"/>
						</g>
					</g>
					<g>
						<g>
							
								<linearGradient id="SVGID_13_" gradientUnits="userSpaceOnUse" x1="1775.5686" y1="2527.2056" x2="1778.8945" y2="2527.2056" gradientTransform="matrix(-0.4498 -0.8931 -0.8931 0.4498 3126.4573 480.8803)">
								<stop  offset="0.1816" style="stop-color:#D2AC88"/>
								<stop  offset="0.8128" style="stop-color:#D3AE8D"/>
							</linearGradient>
							<polygon class="st15" points="68.5,33 68.9,29.1 71.5,27.7 							"/>
						</g>
						<g>
							<polygon class="st5" points="68.5,33 71.7,30.7 71.5,27.7 							"/>
						</g>
					</g>
					<g>
						<g>
							
								<linearGradient id="SVGID_14_" gradientUnits="userSpaceOnUse" x1="432.8113" y1="2703.759" x2="436.137" y2="2703.759" gradientTransform="matrix(0.5485 -0.8361 -0.8361 -0.5485 2087.4155 1868.3342)">
								<stop  offset="0.1816" style="stop-color:#D2AC88"/>
								<stop  offset="0.8128" style="stop-color:#D3AE8D"/>
							</linearGradient>
							<polygon class="st16" points="62.1,22 65.7,20.4 68.2,22 							"/>
						</g>
						<g>
							<polygon class="st5" points="62.1,22 65.7,23.6 68.2,22 							"/>
						</g>
					</g>
					<g>
						<g>
							
								<linearGradient id="SVGID_15_" gradientUnits="userSpaceOnUse" x1="-391.4639" y1="1629.0319" x2="-388.1381" y2="1629.0319" gradientTransform="matrix(0.9984 5.698544e-02 5.698544e-02 -0.9984 366.3343 1662.2877)">
								<stop  offset="0.1816" style="stop-color:#D2AC88"/>
								<stop  offset="0.8128" style="stop-color:#D3AE8D"/>
							</linearGradient>
							<polygon class="st17" points="68.5,11 71.7,13.3 71.5,16.3 							"/>
						</g>
						<g>
							<polygon class="st5" points="68.5,11 68.9,14.9 71.5,16.3 							"/>
						</g>
					</g>
				</g>
			</g>
		</g>
	</g>
	<g>
		
			<linearGradient id="SVGID_16_" gradientUnits="userSpaceOnUse" x1="1.9" y1="10.84" x2="138.1" y2="10.84" gradientTransform="matrix(1 0 0 -1 0 139.89)">
			<stop  offset="0.1816" style="stop-color:#D2AC88"/>
			<stop  offset="0.8128" style="stop-color:#D3AE8D"/>
		</linearGradient>
		<path class="st18" d="M133.2,139.8H6.8c-2.7,0-4.9-2.2-4.9-4.9v-11.7c0-2.7,2.2-4.9,4.9-4.9h126.4c2.7,0,4.9,2.2,4.9,4.9V135
			C138.1,137.6,135.9,139.8,133.2,139.8z"/>
		<g>
			
				<linearGradient id="SVGID_17_" gradientUnits="userSpaceOnUse" x1="7.3451" y1="10.54" x2="16.7451" y2="10.54" gradientTransform="matrix(1 0 0 -1 0 139.89)">
				<stop  offset="0" style="stop-color:#0E2D2A"/>
				<stop  offset="1" style="stop-color:#20423D"/>
			</linearGradient>
			<path class="st19" d="M16.7,128.9c0,1.6-0.6,2.9-1.7,3.8c-0.5,0.4-1,0.7-1.6,0.8c-0.6,0.2-1.3,0.3-2.2,0.3c-0.2,0-0.8,0-1.7,0
				c-0.5,0-0.8,0-1,0H8.1c0-0.2,0.1-0.3,0.1-0.6c0.1-0.5,0.1-1.1,0.1-1.8v-4.1c0-0.6,0-1.1-0.1-1.3c-0.1-0.3-0.3-0.4-0.6-0.4H7.3
				l0.3-0.7H8h1.3c0.3,0,0.7,0,1.2,0s0.8,0,1,0c0.5,0,1,0,1.3,0c1.1,0,1.9,0.2,2.4,0.5C16.2,126.2,16.7,127.3,16.7,128.9z
				 M14.5,129.4c0-1.1-0.2-2-0.8-2.6c-0.3-0.3-0.6-0.5-0.9-0.7c-0.4-0.1-0.9-0.2-1.5-0.2c-0.3,0-0.7,0-1.1,0.1v1.3v3.9
				c0,0.2,0,0.4,0,0.6c0,0.4,0.1,0.7,0.2,0.8c0.2,0.2,0.6,0.3,1.2,0.3c0.9,0,1.7-0.3,2.2-0.9C14.3,131.3,14.5,130.5,14.5,129.4z"/>
			
				<linearGradient id="SVGID_18_" gradientUnits="userSpaceOnUse" x1="17.3969" y1="10.54" x2="20.4766" y2="10.54" gradientTransform="matrix(1 0 0 -1 0 139.89)">
				<stop  offset="0" style="stop-color:#0E2D2A"/>
				<stop  offset="1" style="stop-color:#20423D"/>
			</linearGradient>
			<path class="st20" d="M20.5,133.8h-0.6h-1.3h-0.5c0-0.2,0.1-0.3,0.1-0.6c0.1-0.4,0.1-1,0.1-1.8v-4.1c0-0.6,0-1-0.1-1.3
				s-0.3-0.4-0.6-0.4h-0.1l0.3-0.7h0.6h1.5h0.6c-0.1,0.8-0.1,1.6-0.1,2.2v4.3C20.2,132.5,20.3,133.3,20.5,133.8z"/>
			
				<linearGradient id="SVGID_19_" gradientUnits="userSpaceOnUse" x1="21.0492" y1="10.69" x2="30.1492" y2="10.69" gradientTransform="matrix(1 0 0 -1 0 139.89)">
				<stop  offset="0" style="stop-color:#0E2D2A"/>
				<stop  offset="1" style="stop-color:#20423D"/>
			</linearGradient>
			<path class="st21" d="M30.1,133.8h-0.6h-1.3h-0.8c-0.1-0.6-0.2-1.2-0.4-1.9l-0.3-1.1h-0.9h-1.3h-0.9l-0.3,1
				c-0.2,0.5-0.3,0.9-0.3,1.3c0,0.2,0,0.4,0.1,0.6h-0.4h-1.1h-0.5l-0.1-0.1c0.2-0.4,0.4-0.9,0.6-1.3c0.1-0.2,0.2-0.5,0.3-0.8
				l2.1-5.1c0.2-0.5,0.4-1.1,0.5-1.6H25l1.1-0.1l0.6-0.1c0.1,0.4,0.2,0.9,0.4,1.3l2,5.6c0.2,0.4,0.4,1,0.7,1.7
				C29.9,133.5,30,133.6,30.1,133.8z M26.4,129.9l-1.1-3.7l-1.3,3.7h0.7h0.9H26.4z"/>
			
				<linearGradient id="SVGID_20_" gradientUnits="userSpaceOnUse" x1="30.5935" y1="10.54" x2="42.1349" y2="10.54" gradientTransform="matrix(1 0 0 -1 0 139.89)">
				<stop  offset="0" style="stop-color:#0E2D2A"/>
				<stop  offset="1" style="stop-color:#20423D"/>
			</linearGradient>
			<path class="st22" d="M42.1,133.8h-0.6h-1.3h-0.5c0-0.3,0.1-0.7,0.1-1.1c0-0.5,0-0.9,0-1.2l-0.3-4.7l-2.3,5.5
				c-0.1,0.2-0.2,0.5-0.3,0.7c-0.1,0.3-0.2,0.6-0.2,0.9h-0.4h-0.5h-0.4c0-0.1,0-0.2-0.1-0.3c-0.1-0.2-0.2-0.6-0.4-1.1l-2.3-5.5
				l-0.1,1.1l-0.2,3.2c0,0.4,0,0.7,0,1c0,0.6,0.1,1.1,0.2,1.5h-0.6h-0.6h-0.5v-0.1c0-0.1,0.1-0.3,0.1-0.5c0.1-0.6,0.2-1.2,0.3-2
				l0.3-3.9c0-0.4,0.1-0.7,0.1-0.8v-0.1c0-0.3,0-0.6-0.1-0.7s-0.3-0.2-0.5-0.2h-0.1l0.2-0.7h0.6h1.8h0.7c0.2,0.5,0.3,1,0.5,1.4
				l2,4.9l0.3-0.8l1.7-4c0.2-0.4,0.3-0.9,0.5-1.5h0.6h1.9c0,0.3-0.1,0.6-0.1,0.8c0,0.4,0,0.9,0,1.3l0.2,4.4c0,0.7,0.1,1.3,0.2,1.8
				C42,133.5,42.1,133.7,42.1,133.8z"/>
			
				<linearGradient id="SVGID_21_" gradientUnits="userSpaceOnUse" x1="42.9986" y1="10.59" x2="52.7203" y2="10.59" gradientTransform="matrix(1 0 0 -1 0 139.89)">
				<stop  offset="0" style="stop-color:#0E2D2A"/>
				<stop  offset="1" style="stop-color:#20423D"/>
			</linearGradient>
			<path class="st23" d="M52.7,129.2c0,1.5-0.5,2.6-1.4,3.5s-2.2,1.4-3.7,1.4c-1.4,0-2.5-0.4-3.4-1.3c-0.9-0.9-1.3-2-1.3-3.4
				c0-1.4,0.5-2.6,1.4-3.5s2.1-1.4,3.6-1.4c0.9,0,1.7,0.2,2.4,0.5s1.3,0.9,1.7,1.6C52.5,127.5,52.7,128.3,52.7,129.2z M50.5,129.5
				c0-1.2-0.2-2.2-0.7-2.9c-0.5-0.7-1.1-1.1-1.9-1.1c-0.8,0-1.5,0.3-1.9,0.9c-0.5,0.6-0.7,1.5-0.7,2.7c0,1.2,0.2,2.2,0.7,2.9
				s1.1,1.1,1.9,1.1c0.8,0,1.5-0.3,1.9-1C50.3,131.6,50.5,130.7,50.5,129.5z"/>
			
				<linearGradient id="SVGID_22_" gradientUnits="userSpaceOnUse" x1="53.4456" y1="10.54" x2="62.3024" y2="10.54" gradientTransform="matrix(1 0 0 -1 0 139.89)">
				<stop  offset="0" style="stop-color:#0E2D2A"/>
				<stop  offset="1" style="stop-color:#20423D"/>
			</linearGradient>
			<path class="st24" d="M62.3,133.9h-0.9h-0.9c-0.4-0.6-0.7-1.1-0.9-1.4l-4.1-5.3v0.7v3.5c0,0.7,0.1,1.4,0.2,1.9
				c0,0.2,0.1,0.4,0.2,0.6h-0.6h-0.7h-0.5c0-0.2,0.1-0.4,0.1-0.6c0.1-0.4,0.1-1.1,0.1-1.9v-4c0-0.7,0-1.1-0.1-1.4
				c-0.1-0.2-0.3-0.4-0.6-0.4h-0.1l0.3-0.7h0.6h1.5h0.7c0.4,0.6,0.7,1.1,1,1.5l3.4,4.5l-0.1-3.4c0-0.8-0.1-1.4-0.2-2.1
				c0-0.2-0.1-0.4-0.2-0.6H61h0.7h0.5c0,0.2-0.1,0.4-0.1,0.6c-0.1,0.4-0.1,1.1-0.1,2.1v3.8c0,0.1,0,0.3,0,0.8
				C62.2,132.8,62.2,133.3,62.3,133.9z"/>
			
				<linearGradient id="SVGID_23_" gradientUnits="userSpaceOnUse" x1="63.4725" y1="10.54" x2="72.876" y2="10.54" gradientTransform="matrix(1 0 0 -1 0 139.89)">
				<stop  offset="0" style="stop-color:#0E2D2A"/>
				<stop  offset="1" style="stop-color:#20423D"/>
			</linearGradient>
			<path class="st25" d="M72.9,128.9c0,1.6-0.6,2.9-1.7,3.8c-0.5,0.4-1,0.7-1.6,0.8c-0.6,0.2-1.3,0.3-2.2,0.3c-0.2,0-0.8,0-1.7,0
				c-0.5,0-0.8,0-1,0h-0.4c0-0.2,0.1-0.3,0.1-0.6c0.1-0.5,0.1-1.1,0.1-1.8v-4.1c0-0.6,0-1.1-0.1-1.3c-0.1-0.3-0.3-0.4-0.6-0.4h-0.1
				l0.3-0.7h0.4h1.3c0.3,0,0.7,0,1.2,0s0.8,0,1,0c0.5,0,1,0,1.3,0c1.1,0,1.9,0.2,2.4,0.5C72.3,126.2,72.9,127.3,72.9,128.9z
				 M70.6,129.4c0-1.1-0.2-2-0.8-2.6c-0.3-0.3-0.6-0.5-0.9-0.7c-0.4-0.1-0.9-0.2-1.5-0.2c-0.3,0-0.7,0-1.1,0.1v1.3v3.9
				c0,0.2,0,0.4,0,0.6c0,0.4,0.1,0.7,0.2,0.8c0.2,0.2,0.6,0.3,1.2,0.3c0.9,0,1.7-0.3,2.2-0.9C70.4,131.3,70.6,130.5,70.6,129.4z"/>
			
				<linearGradient id="SVGID_24_" gradientUnits="userSpaceOnUse" x1="76.7697" y1="10.49" x2="84.6978" y2="10.49" gradientTransform="matrix(1 0 0 -1 0 139.89)">
				<stop  offset="0" style="stop-color:#0E2D2A"/>
				<stop  offset="1" style="stop-color:#20423D"/>
			</linearGradient>
			<path class="st26" d="M84.7,125.2l-0.2,0.6l-0.2,0.8l-0.1,0.5h-0.3c-0.3-0.4-0.6-0.7-0.9-0.9c-0.4-0.3-0.9-0.4-1.4-0.4
				c-0.8,0-1.5,0.3-2,0.9s-0.7,1.5-0.7,2.5c0,1.1,0.3,2,0.8,2.7c0.6,0.7,1.3,1,2.2,1c0.4,0,0.8-0.1,1.2-0.2c0.3-0.1,0.7-0.3,1-0.5
				l0.2,0.1l-0.2,0.4l-0.2,0.5l-0.1,0.5c-0.5,0.1-0.9,0.2-1.2,0.3c-0.5,0.1-1,0.1-1.4,0.1c-0.9,0-1.6-0.2-2.3-0.5
				c-0.7-0.4-1.3-0.9-1.7-1.7c-0.4-0.7-0.6-1.6-0.6-2.5c0-1.5,0.5-2.7,1.6-3.6c0.9-0.8,2.2-1.1,3.7-1.1c0.4,0,0.7,0,1.1,0.1
				C83.6,124.9,84.1,125,84.7,125.2z"/>
			
				<linearGradient id="SVGID_25_" gradientUnits="userSpaceOnUse" x1="85.3083" y1="10.44" x2="92.0273" y2="10.44" gradientTransform="matrix(1 0 0 -1 0 139.89)">
				<stop  offset="0" style="stop-color:#0E2D2A"/>
				<stop  offset="1" style="stop-color:#20423D"/>
			</linearGradient>
			<path class="st27" d="M92,132.2l-0.1,0.6l-0.1,0.6l-0.1,0.5h-0.5h-3.8H86c0-0.2,0.1-0.3,0.1-0.6c0.1-0.4,0.1-1,0.1-1.8v-4.1
				c0-0.6,0-1-0.1-1.3s-0.3-0.4-0.6-0.4h-0.1l0.3-0.7h1.5h3.9c0,0,0.1,0,0.3,0c0.1,0,0.3,0,0.4,0l-0.2,0.5l-0.2,0.7l-0.1,0.4h-0.2
				c-0.2-0.2-0.4-0.4-0.6-0.5c-0.3-0.1-0.7-0.2-1.3-0.2c-0.2,0-0.4,0-0.8,0l-0.1,1.3v1.3h1.5c0.3,0,0.8,0,1.4-0.1v0.3v0.5v0.4
				c-0.7-0.1-1.3-0.1-1.8-0.1c-0.3,0-0.7,0-1,0v1.6c0,0.5,0,0.9,0.1,1.1c0,0.1,0.1,0.2,0.2,0.3c0.2,0.2,0.6,0.3,1.3,0.3
				c0.6,0,1.1-0.1,1.5-0.3c0.2-0.1,0.4-0.2,0.6-0.5L92,132.2z"/>
			
				<linearGradient id="SVGID_26_" gradientUnits="userSpaceOnUse" x1="92.549" y1="10.54" x2="101.4059" y2="10.54" gradientTransform="matrix(1 0 0 -1 0 139.89)">
				<stop  offset="0" style="stop-color:#0E2D2A"/>
				<stop  offset="1" style="stop-color:#20423D"/>
			</linearGradient>
			<path class="st28" d="M101.4,133.9h-0.9h-0.9c-0.4-0.6-0.7-1.1-0.9-1.4l-4.1-5.3v0.7v3.5c0,0.7,0.1,1.4,0.2,1.9
				c0,0.2,0.1,0.4,0.2,0.6h-0.6h-0.7h-0.5c0-0.2,0.1-0.4,0.1-0.6c0.1-0.4,0.1-1.1,0.1-1.9v-4c0-0.7,0-1.1-0.1-1.4
				c-0.1-0.2-0.3-0.4-0.6-0.4h-0.1l0.3-0.7h0.6H95h0.7c0.4,0.6,0.7,1.1,1,1.5l3.4,4.5l-0.1-3.4c0-0.8-0.1-1.4-0.2-2.1
				c0-0.2-0.1-0.4-0.2-0.6h0.5h0.7h0.5c0,0.2-0.1,0.4-0.1,0.6c-0.1,0.4-0.1,1.1-0.1,2.1v3.8c0,0.1,0,0.3,0,0.8
				C101.3,132.8,101.3,133.3,101.4,133.9z"/>
			
				<linearGradient id="SVGID_27_" gradientUnits="userSpaceOnUse" x1="101.9395" y1="10.54" x2="110.2616" y2="10.54" gradientTransform="matrix(1 0 0 -1 0 139.89)">
				<stop  offset="0" style="stop-color:#0E2D2A"/>
				<stop  offset="1" style="stop-color:#20423D"/>
			</linearGradient>
			<path class="st29" d="M110.3,124.9l-0.1,0.5l-0.2,0.7l-0.1,0.4h-0.2c-0.2-0.2-0.4-0.4-0.6-0.5c-0.4-0.1-0.8-0.2-1.4-0.2
				c-0.2,0-0.4,0-0.6,0v1.3v4.3c0,1.1,0.1,1.9,0.3,2.4h-0.6h-1.3H105c0-0.2,0.1-0.4,0.1-0.6c0.1-0.4,0.1-1,0.1-1.8v-4.1
				c0-0.4,0-0.7,0-0.8c0-0.1,0-0.3,0-0.6c-0.7,0-1.2,0-1.6,0.1c-0.1,0-0.3,0.1-0.5,0.2s-0.5,0.3-0.7,0.5l-0.2-0.1l0.1-0.4l0.1-0.6
				l0.1-0.5h0.6c1.6,0,2.7,0.1,3.3,0.1c0.7,0,1.9,0,3.5-0.1L110.3,124.9z"/>
			
				<linearGradient id="SVGID_28_" gradientUnits="userSpaceOnUse" x1="110.2225" y1="10.34" x2="118.9516" y2="10.34" gradientTransform="matrix(1 0 0 -1 0 139.89)">
				<stop  offset="0" style="stop-color:#0E2D2A"/>
				<stop  offset="1" style="stop-color:#20423D"/>
			</linearGradient>
			<path class="st30" d="M119,133.7v0.1h-0.6l-2.1,0.1l-0.1-0.2l-0.2-0.4c0-0.1-0.1-0.2-0.2-0.4c-0.5-1-1-1.8-1.4-2.4
				c-0.2-0.3-0.3-0.5-0.4-0.6s-0.2-0.1-0.4-0.1c-0.1,0-0.1,0-0.1,0l0.1-0.4l0.1-0.4c0.1,0,0.3,0,0.4,0c0.5,0,0.8-0.1,1.1-0.4
				c0.3-0.3,0.4-0.7,0.4-1.2c0-1-0.5-1.5-1.6-1.5c-0.2,0-0.4,0-0.7,0.1c0,0.6,0,1,0,1.3v4.3c0,1.1,0.1,1.9,0.3,2.4H113h-1.3h-0.5
				c0-0.2,0.1-0.3,0.1-0.6c0.1-0.4,0.1-1,0.1-1.8v-4.1c0-0.6,0-1-0.1-1.3s-0.3-0.4-0.6-0.4h-0.1l0.3-0.7h0.8h3.7
				c0.8,0,1.5,0.2,1.9,0.5s0.6,0.8,0.6,1.5c0,1-0.6,1.7-1.7,2.2l0.3,0.5c0.4,0.7,1,1.7,1.8,2.8c0.2,0.2,0.4,0.5,0.6,0.8
				C118.6,133.4,118.7,133.5,119,133.7z"/>
			
				<linearGradient id="SVGID_29_" gradientUnits="userSpaceOnUse" x1="118.4" y1="10.69" x2="127.5" y2="10.69" gradientTransform="matrix(1 0 0 -1 0 139.89)">
				<stop  offset="0" style="stop-color:#0E2D2A"/>
				<stop  offset="1" style="stop-color:#20423D"/>
			</linearGradient>
			<path class="st31" d="M127.5,133.8h-0.6h-1.3h-0.8c-0.1-0.6-0.2-1.2-0.4-1.9l-0.3-1.1h-0.9h-1.3H121l-0.3,1
				c-0.2,0.5-0.3,0.9-0.3,1.3c0,0.2,0,0.4,0.1,0.6h-0.4H119h-0.5l-0.1-0.1c0.2-0.4,0.4-0.9,0.6-1.3c0.1-0.2,0.2-0.5,0.3-0.8l2.1-5.1
				c0.2-0.5,0.4-1.1,0.5-1.6h0.5l1.1-0.1l0.6-0.1c0.1,0.4,0.2,0.9,0.4,1.3l2,5.6c0.2,0.4,0.4,1,0.7,1.7
				C127.3,133.5,127.4,133.6,127.5,133.8z M123.8,129.9l-1.1-3.7l-1.3,3.7h0.7h0.9H123.8z"/>
			
				<linearGradient id="SVGID_30_" gradientUnits="userSpaceOnUse" x1="127.605" y1="10.54" x2="134.2601" y2="10.54" gradientTransform="matrix(1 0 0 -1 0 139.89)">
				<stop  offset="0" style="stop-color:#0E2D2A"/>
				<stop  offset="1" style="stop-color:#20423D"/>
			</linearGradient>
			<path class="st32" d="M134.3,132.2l-0.1,0.5l-0.1,0.6l-0.1,0.5h-0.5h-3.7h-1.5c0-0.2,0.1-0.3,0.1-0.6c0.1-0.4,0.1-1,0.1-1.8v-4.1
				c0-0.6,0-1-0.1-1.3s-0.3-0.4-0.6-0.4h-0.1l0.3-0.7h0.6h1.5h0.6c-0.1,0.9-0.1,1.6-0.1,2.2v4c0,0.2,0,0.4,0,0.6
				c0,0.4,0.1,0.7,0.2,0.8c0.2,0.2,0.6,0.3,1.2,0.3c0.6,0,1.1-0.1,1.5-0.3c0.2-0.1,0.4-0.3,0.6-0.5L134.3,132.2z"/>
		</g>
	</g>
</g>
</svg>
