[{
    "code": "A.01",
    "total_area": "57,9",
    "wall_surface_area": "63,2",
    "bedroom": "2",
    "wc": 2,
    "direction": "Tây",
    "view_3d": "https://goo.gl/uEg747",
    "thumbnail": "a1.png",
    "link_to": "can-ho-a01"
}, {
    "code": "A.02",
    "total_area": "58,2",
    "wall_surface_area": "64,0",
    "bedroom": "2",
    "wc": 2,
    "direction": "Tây",
    "view_3d": "https://goo.gl/uEg747",
    "thumbnail": "a2.png",
    "link_to": "can-ho-a02"
}, {
    "code": "A.03",
    "total_area": "45,8",
    "wall_surface_area": "50,4",
    "bedroom": "1",
    "wc": 1,
    "direction": "Tây",
    "view_3d": "https://goo.gl/LuPwn1",
    "thumbnail": "a3.png",
    "link_to": "can-ho-a03"
}, {
    "code": "A.04",
    "total_area": "46,1",
    "wall_surface_area": "50,2",
    "bedroom": "1",
    "wc": 1,
    "direction": "Đông",
    "view_3d": "https://goo.gl/LuPwn1",
    "thumbnail": "a4.png",
    "link_to": "can-ho-a04"
}, {
    "code": "A.05",
    "total_area": "57,4",
    "wall_surface_area": "62,9",
    "bedroom": "2",
    "wc": 2,
    "direction": "Đông",
    "view_3d": "https://goo.gl/yKBtVz",
    "thumbnail": "a5.png",
    "link_to": "can-ho-a05"
}, {
    "code": "A.06",
    "total_area": "58,4",
    "wall_surface_area": "63,1",
    "bedroom": "2",
    "wc": 2,
    "direction": "Đông",
    "view_3d": "https://goo.gl/yKBtVz",
    "thumbnail": "a6.png",
    "link_to": "can-ho-a06"
}, {
    "code": "A.07",
    "total_area": "47,8",
    "wall_surface_area": "52,0",
    "bedroom": "1",
    "wc": 1,
    "direction": "Đông",
    "view_3d": "https://goo.gl/gihrQR",
    "thumbnail": "a7.png",
    "link_to": "can-ho-a07"
}, {
    "code": "A.08",
    "total_area": "58,6",
    "wall_surface_area": "63,5",
    "bedroom": "2",
    "wc": 2,
    "direction": "Đông",
    "view_3d": "https://goo.gl/uoZmHf",
    "thumbnail": "a8.png",
    "link_to": "can-ho-a08"
}, {
    "code": "A.09",
    "total_area": "65,6",
    "wall_surface_area": "72,6",
    "bedroom": "2",
    "wc": 2,
    "direction": "Đông",
    "view_3d": "https://goo.gl/tCBsNG",
    "thumbnail": "a9.png",
    "link_to": "can-ho-a09"
}, {
    "code": "A.10",
    "total_area": "64,4",
    "wall_surface_area": "71,0",
    "bedroom": "2",
    "wc": 2,
    "direction": "Tây",
    "view_3d": "https://goo.gl/tCBsNG",
    "thumbnail": "a10.png",
    "link_to": "can-ho-a10"
}, {
    "code": "A.11",
    "total_area": "58,7",
    "wall_surface_area": "64,1",
    "bedroom": "2",
    "wc": 2,
    "direction": "Tây",
    "view_3d": "https://goo.gl/A3HpKb",
    "thumbnail": "a11.png",
    "link_to": "can-ho-a11"
}, {
    "code": "B.01",
    "total_area": "46,0",
    "wall_surface_area": "50,5",
    "bedroom": "1",
    "wc": 1,
    "direction": "Tây",
    "view_3d": "https://goo.gl/DYYicV",
    "thumbnail": "b1.png",
    "link_to": "can-ho-b1"
}, {
    "code": "B.02",
    "total_area": "64,7",
    "wall_surface_area": "71,6",
    "bedroom": "2",
    "wc": 2,
    "direction": "Tây",
    "view_3d": "https://goo.gl/chDeFS",
    "thumbnail": "b2.png",
    "link_to": "can-ho-b2"
}, {
    "code": "B.03",
    "total_area": "46,0",
    "wall_surface_area": "50,6",
    "bedroom": "1",
    "wc": 1,
    "direction": "Bắc",
    "view_3d": "https://goo.gl/M5TYUy",
    "thumbnail": "b3.png",
    "link_to": "can-ho-b3"
}, {
    "code": "B.04",
    "total_area": "56,9",
    "wall_surface_area": "62,3",
    "bedroom": "2",
    "wc": 2,
    "direction": "Bắc",
    "view_3d": "https://goo.gl/M5TYUy",
    "thumbnail": "b4.png",
    "link_to": "can-ho-b4"
}, {
    "code": "B.05",
    "total_area": "48,4",
    "wall_surface_area": "53,2",
    "bedroom": "1",
    "wc": 1,
    "direction": "Bắc",
    "view_3d": "https://goo.gl/v7VX3S",
    "thumbnail": "b5.png",
    "link_to": "can-ho-b5"
}, {
    "code": "B.06",
    "total_area": "61,9",
    "wall_surface_area": "68,6",
    "bedroom": "2",
    "wc": 2,
    "direction": "Bắc",
    "view_3d": "https://goo.gl/ij8U5M",
    "thumbnail": "b6.png",
    "link_to": "can-ho-b6"
}, {
    "code": "B.07",
    "total_area": "63,9",
    "wall_surface_area": "70,1",
    "bedroom": "2",
    "wc": 2,
    "direction": "Nam",
    "view_3d": "https://goo.gl/P2iQZR",
    "thumbnail": "b7.png",
    "link_to": "can-ho-b7"
}, {
    "code": "B.08",
    "total_area": "57,8",
    "wall_surface_area": "63,0",
    "bedroom": "2",
    "wc": 2,
    "direction": "Nam",
    "view_3d": "https://goo.gl/9oJ4ug",
    "thumbnail": "b8.png",
    "link_to": "can-ho-b8"
}, {
    "code": "B.09",
    "total_area": "57,5",
    "wall_surface_area": "62,6",
    "bedroom": "2",
    "wc": 2,
    "direction": "Nam",
    "view_3d": "https://goo.gl/9oJ4ug",
    "thumbnail": "b9.png",
    "link_to": "can-ho-b9"
}]